<?xml version="1.0" encoding="utf-8"?>
<!-- (c) ammap.com | SVG map of World - High -->
<svg xmlns="http://www.w3.org/2000/svg" xmlns:amcharts="http://amcharts.com/ammap" xmlns:xlink="http://www.w3.org/1999/xlink" version="1.1">
	<defs>
		<style type="text/css">
			.land
			{
				fill: #CCCCCC;
				fill-opacity: 1;
				stroke:white;
				stroke-opacity: 1;
				stroke-width:0.5;
			}
		</style>

		<amcharts:ammap projection="mercator" leftLongitude="-169.110266" topLatitude="83.600842" rightLongitude="190.486279" bottomLatitude="-58.508473"></amcharts:ammap>

		<!-- All areas are listed in the line below. You can use this list in your script. -->
		<!--{id:"AD"},{id:"AE"},{id:"AF"},{id:"AG"},{id:"AI"},{id:"AL"},{id:"AM"},{id:"AO"},{id:"AR"},{id:"AS"},{id:"AT"},{id:"AU"},{id:"AW"},{id:"AX"},{id:"AZ"},{id:"BA"},{id:"BB"},{id:"BD"},{id:"BE"},{id:"BF"},{id:"BG"},{id:"BH"},{id:"BI"},{id:"BJ"},{id:"BL"},{id:"BN"},{id:"BO"},{id:"BM"},{id:"BQ"},{id:"BR"},{id:"BS"},{id:"BT"},{id:"BV"},{id:"BW"},{id:"BY"},{id:"BZ"},{id:"CA"},{id:"CC"},{id:"CD"},{id:"CF"},{id:"CG"},{id:"CH"},{id:"CI"},{id:"CK"},{id:"CL"},{id:"CM"},{id:"CN"},{id:"CO"},{id:"CR"},{id:"CU"},{id:"CV"},{id:"CW"},{id:"CX"},{id:"CY"},{id:"CZ"},{id:"DE"},{id:"DJ"},{id:"DK"},{id:"DM"},{id:"DO"},{id:"DZ"},{id:"EC"},{id:"EG"},{id:"EE"},{id:"EH"},{id:"ER"},{id:"ES"},{id:"ET"},{id:"FI"},{id:"FJ"},{id:"FK"},{id:"FM"},{id:"FO"},{id:"FR"},{id:"GA"},{id:"GB"},{id:"GE"},{id:"GD"},{id:"GF"},{id:"GG"},{id:"GH"},{id:"GI"},{id:"GL"},{id:"GM"},{id:"GN"},{id:"GO"},{id:"GP"},{id:"GQ"},{id:"GR"},{id:"GS"},{id:"GT"},{id:"GU"},{id:"GW"},{id:"GY"},{id:"HK"},{id:"HM"},{id:"HN"},{id:"HR"},{id:"HT"},{id:"HU"},{id:"ID"},{id:"IE"},{id:"IL"},{id:"IM"},{id:"IN"},{id:"IO"},{id:"IQ"},{id:"IR"},{id:"IS"},{id:"IT"},{id:"JE"},{id:"JM"},{id:"JO"},{id:"JP"},{id:"JU"},{id:"KE"},{id:"KG"},{id:"KH"},{id:"KI"},{id:"KM"},{id:"KN"},{id:"KP"},{id:"KR"},{id:"XK"},{id:"KW"},{id:"KY"},{id:"KZ"},{id:"LA"},{id:"LB"},{id:"LC"},{id:"LI"},{id:"LK"},{id:"LR"},{id:"LS"},{id:"LT"},{id:"LU"},{id:"LV"},{id:"LY"},{id:"MA"},{id:"MC"},{id:"MD"},{id:"MG"},{id:"ME"},{id:"MF"},{id:"MH"},{id:"MK"},{id:"ML"},{id:"MO"},{id:"MM"},{id:"MN"},{id:"MP"},{id:"MQ"},{id:"MR"},{id:"MS"},{id:"MT"},{id:"MU"},{id:"MV"},{id:"MW"},{id:"MX"},{id:"MY"},{id:"MZ"},{id:"NA"},{id:"NC"},{id:"NE"},{id:"NF"},{id:"NG"},{id:"NI"},{id:"NL"},{id:"NO"},{id:"NP"},{id:"NR"},{id:"NU"},{id:"NZ"},{id:"OM"},{id:"PA"},{id:"PE"},{id:"PF"},{id:"PG"},{id:"PH"},{id:"PK"},{id:"PL"},{id:"PM"},{id:"PN"},{id:"PR"},{id:"PS"},{id:"PT"},{id:"PW"},{id:"PY"},{id:"QA"},{id:"RE"},{id:"RO"},{id:"RS"},{id:"RU"},{id:"RW"},{id:"SA"},{id:"SB"},{id:"SC"},{id:"SD"},{id:"SE"},{id:"SG"},{id:"SH"},{id:"SI"},{id:"SJ"},{id:"SK"},{id:"SL"},{id:"SM"},{id:"SN"},{id:"SO"},{id:"SR"},{id:"SS"},{id:"ST"},{id:"SV"},{id:"SX"},{id:"SY"},{id:"SZ"},{id:"TC"},{id:"TD"},{id:"TF"},{id:"TG"},{id:"TH"},{id:"TJ"},{id:"TK"},{id:"TL"},{id:"TM"},{id:"TN"},{id:"TO"},{id:"TR"},{id:"TT"},{id:"TV"},{id:"TW"},{id:"TZ"},{id:"UA"},{id:"UG"},{id:"UM_DQ"},{id:"UM_FQ"},{id:"UM_HQ"},{id:"UM_JQ"},{id:"UM_MQ"},{id:"UM_WQ"},{id:"US"},{id:"UY"},{id:"UZ"},{id:"VA"},{id:"VC"},{id:"VE"},{id:"VG"},{id:"VI"},{id:"VN"},{id:"VU"},{id:"WF"},{id:"WS"},{id:"YE"},{id:"YT"},{id:"ZA"},{id:"ZM"},{id:"ZW"}-->

	</defs>
	<g>
		<path id="AD" title="Andorra" class="land" d="M480.49,331.38L480.41,331.4L480.15,331.56L480,331.61L479.87,331.64L479.77,331.63L479.71,331.54L479.71,331.4L479.69,331.27L479.67,331.21L479.71,331.02L479.79,330.93L479.91,330.85L480.1,330.88L480.5,330.99L480.58,331.1L480.58,331.17L480.51,331.29z"/>
		<path id="AE" title="United Arab Emirates" class="land" d="M633.7,388.62l0.18,0.25l0.03,1.7l0.04,0.12l-0.1,0.02l-0.11,0.13l-0.13,0.2l-0.18,0.1l-0.14,0.12l-0.13,0.14l-0.12,0.03l-0.16,-0.18l-0.11,-0.19l0.03,-0.04l0.08,-0.01l0.03,-0.1l-0.04,-0.14l-0.11,-0.05l-0.13,0l-0.13,0.06l-0.13,0.12l-0.08,0.13l-0.01,0.27l0.04,0.3l0,0.15l-0.07,0.18l-0.03,0.27l0.05,0.21l0.05,0.12l0,0.1l-0.13,0.33l0.11,0.06l0.36,0.02l0.11,0.22l0.07,0.15l-0.02,0.09l-0.26,0.07l-0.32,0.07l-0.23,-0.02l-0.42,0.1l-0.22,0.15l0.07,0.1l0.08,0.07l0.04,0.2l-0.07,0.29l-0.12,0.28l-0.15,0.35l-0.17,0.4l-0.23,0.6l-0.2,0.47l-0.02,0.34l0,0.22l-0.02,0.44l-0.19,0.24l-0.04,0.01l-0.22,-0.03l-0.08,-0.01l-0.21,-0.03l-0.33,-0.04l-0.43,-0.06l-0.51,-0.07l-0.57,-0.07l-0.6,-0.08l-0.63,-0.08l-0.62,-0.08l-0.61,-0.08l-0.57,-0.07l-0.51,-0.07l-0.43,-0.06l-0.33,-0.04l-0.21,-0.03l-0.08,-0.01l-0.24,-0.03l-0.13,-0.16l-0.15,-0.2l-0.16,-0.2l-0.15,-0.2l-0.15,-0.2l-0.15,-0.2l-0.15,-0.2l-0.15,-0.2l-0.15,-0.2l-0.15,-0.2l-0.15,-0.2l-0.16,-0.2l-0.15,-0.2l-0.15,-0.2l-0.15,-0.2l-0.15,-0.2l-0.15,-0.2l-0.1,-0.13l-0.06,-0.15l-0.01,-0.4v-0.09l0.1,-0.16l0.05,0.11l0.12,0.16l0.2,-0.04l0.09,0.03l0.07,0.55l0.14,0.2l0.18,0.08l0.6,0.04l0.37,-0.07l0.73,-0.36l0.38,-0.13l1.06,0.02l0.85,0.15l1.33,0.09l0.26,-0.02l0.71,-0.29l0.44,-0.25l0.26,-0.07l0.17,-0.25l0.11,-0.32l0.1,-0.21l0.13,-0.1l0.12,-0.18l0.1,-0.29l0.25,-0.29l0.99,-0.71l0.58,-0.6l0.05,-0.19l0.31,-0.29l0.25,-0.32l1.17,-0.92l0.24,-0.38l0.14,-0.42l0.02,-0.03l0.1,-0.02l0.14,0.06l0.01,0.32l-0.05,0.3l-0.01,0.32l-0.02,0.17l0.11,0.14l0.19,0.06l0.08,-0.01L633.7,388.62zM633.65,389.9l0.02,-0.13l-0.03,-0.07l-0.12,-0.01l-0.05,0.11l-0.02,0.16l0.08,0.01L633.65,389.9zM628.56,392.34l-0.03,0.06l-0.08,-0.01l-0.2,-0.05l-0.06,-0.09l0.12,-0.1l0.05,-0.01l0.08,0.11L628.56,392.34zM625.38,392.9l-0.21,0.02l-0.19,-0.12l0.4,-0.16l0.11,-0.07l0.12,-0.14l0.09,0.12l-0.1,0.19l-0.07,0.08L625.38,392.9zM623.37,392.81l-0.05,0.02l-0.05,-0.17l0,-0.05l0.13,-0.08l0.08,0.14L623.37,392.81zM627.05,393.15l0,0.1l-0.29,-0.03l-0.08,0.05l-0.23,-0.03l-0.23,-0.08l0.16,-0.13l0.4,-0.15l0.17,0.13L627.05,393.15z"/>
		<path id="AF" title="Afghanistan" class="land" d="M685.88,350.59L685.74,350.62L685.53,350.53L685.45,350.4L685.42,350.38L685.26,350.47L684.95,350.57L684.42,350.85L684.44,350.92L684.78,351.2L684.86,351.3L684.9,351.33L684.59,351.46L683.93,351.76L683.49,352.01L683.38,352.02L683.12,351.92L682.73,351.79L682.63,351.8L681.73,351.82L680.9,351.86L680.56,351.92L679.92,351.98L679.51,352L679.26,352.1L678.98,352.22L678.68,352.3L678.47,352.33L678.21,352.45L678.04,352.68L677.54,353.03L677.27,353.2L677.13,353.38L676.97,353.4L676.7,353.37L676.49,353.57L676.26,353.87L675.84,354.29L675.61,354.46L675.48,354.73L675.58,354.88L675.92,355.09L676.08,355.29L676.16,355.45L676.32,355.86L676.42,356.27L676.57,356.44L676.61,356.74L676.65,356.92L676.57,357.05L676.49,357.19L676.49,357.33L676.58,357.46L676.66,357.59L676.7,357.69L676.65,357.8L676.49,357.97L676.41,358.14L676.24,358.42L675.96,358.62L675.79,358.76L675.59,359.06L675.28,359.4L675.14,359.67L675.01,359.83L674.86,359.91L674.9,360.06L675.02,360.25L675.23,360.45L675.22,360.78L675.21,361.01L675.22,361.3L675.11,361.53L674.54,361.76L673.99,361.86L673.32,361.87L673.07,361.83L672.87,361.78L672.14,361.53L671.84,361.68L671.78,362.05L672.31,362.64L672.53,362.98L672.77,363.53L672.95,363.82L672.89,364.09L672.41,364.39L671.93,364.68L671.32,364.74L670.94,364.84L670.75,364.99L670.62,365.61L670.48,365.84L670.49,366.11L670.36,366.41L670.16,366.61L670.02,366.93L670.07,367.54L670.13,368.57L669.87,368.9L669.58,369.22L669.27,369.46L668.98,369.57L668.74,369.53L668.54,369.32L668.43,369.15L668.22,369.01L668,369.04L667.79,369.17L667.44,369.13L667.14,369L666.99,369.01L666.91,369.14L666.59,369.42L665.81,369.85L665.49,369.88L665.36,369.98L665.41,370.16L665.55,370.3L665.79,370.4L665.8,370.52L665.59,370.62L665.41,370.73L665,370.87L664.54,370.93L664.06,370.85L663.81,370.66L663.52,370.64L663.25,370.78L662.98,371L662.68,371.49L662.6,371.57L662.52,371.65L662.32,371.75L662.04,371.93L661.9,372.28L661.73,372.91L661.77,373.25L661.79,373.84L661.72,374.26L661.6,374.53L661.62,374.74L661.81,374.98L661.73,375.14L661.58,375.31L661.42,375.41L660.82,375.59L659.99,375.84L659.44,376L658.63,376.24L658.39,376.3L657.89,376.32L657.64,376.28L657.29,376.27L656.78,376.28L656.42,376.35L656.06,376.47L655.8,376.62L655.65,376.76L655.59,376.83L655.23,376.71L654.1,376.5L651.04,376.78L650.75,376.73L649.71,376.39L648.36,375.96L647.53,375.69L646.46,375.34L647.19,374.47L647.83,373.71L648.47,372.94L649.1,372.19L649.17,371.92L649.18,371.4L649.01,370.71L648.75,370.39L647.87,370.26L647.21,370.17L646.49,370.06L646.39,370.02L646.31,369.48L646.35,369.24L646.3,368.77L646.31,368.41L646.41,367.81L646.42,367.54L646.08,366.38L645.9,365.74L645.71,365.07L645.67,364.86L645.66,364.59L646.1,363.97L646.24,363.84L646.5,363.53L646.66,363.36L646.63,363.25L646.35,363.19L645.93,363.18L645.7,363.09L645.52,362.92L645.45,362.67L645.57,362.23L645.45,361.38L645.69,360.96L645.89,360.67L646.58,360.62L646.34,360.29L646.23,360.1L646.16,360.04L646.13,359.95L646.16,359.86L646.34,359.83L646.46,359.71L646.66,359.56L646.76,359.49L646.78,359.3L646.87,359.16L647.01,359L647.12,358.8L647.09,358.58L647.19,358.31L647.24,358.14L647.32,357.99L647.25,357.78L647.19,357.6L647.18,357.38L647.29,357.33L647.43,357.25L647.45,357.08L647.53,356.86L647.58,356.69L647.68,356.55L647.69,356.42L647.63,356.19L647.86,356.16L647.96,356.28L648.08,356.44L648.42,356.75L648.64,356.83L648.92,356.88L649.26,356.84L649.53,356.78L649.66,356.79L649.95,357.01L650.3,357.32L650.41,357.46L650.46,357.67L650.57,357.73L650.79,357.52L651,357.45L651.2,357.49L651.42,357.52L651.63,357.44L651.73,357.39L652.11,357.12L652.45,356.91L652.67,356.79L652.74,356.37L652.84,356.13L652.98,355.99L652.93,355.82L652.87,355.68L652.81,355.51L652.87,355.41L653.01,355.37L653.35,355.37L653.96,355.18L654.46,354.99L654.93,354.84L655.14,354.81L655.34,354.84L655.43,354.79L655.46,354.65L655.57,354.49L655.83,354.37L656.32,354.1L656.75,353.7L656.9,353.4L657.01,352.96L657.21,352.28L657.43,351.53L657.51,351.2L657.61,350.94L657.99,350.73L658.37,350.57L658.97,350.54L659.68,350.52L659.83,350.11L659.92,349.76L660.04,349.58L660.21,349.43L660.27,349.4L660.65,349.62L661.23,349.95L661.91,350.11L662.25,350.19L662.39,350.18L663.25,350.1L663.93,350.23L664.28,350.58L664.63,350.67L664.97,350.5L665.19,350.47L665.27,350.58L665.44,350.62L665.7,350.61L665.85,350.7L665.86,350.8L665.88,350.91L666.08,351.18L666.42,351.5L666.73,351.58L667.14,351.33L667.27,351.36L667.34,351.28L667.38,351.09L667.63,350.92L668.07,350.76L668.33,350.62L668.42,350.5L668.57,350.46L668.74,350.5L668.85,350.46L668.89,350.34L668.94,350.29L669.03,350.25L669.1,350.23L669.24,350.26L669.49,350.47L669.85,350.85L670.09,351.02L670.2,350.99L670.34,350.88L670.51,350.68L670.55,350.38L670.47,350L670.53,349.7L670.73,349.46L671.1,349.32L671.65,349.26L671.99,349.29L672.11,349.42L672.28,349.48L672.49,349.5L672.68,349.36L672.86,349.07L672.87,348.71L672.71,348.29L672.76,348.15L672.82,348.09L673.03,347.94L673.33,347.61L673.61,347.2L673.88,346.69L674.22,346.38L674.62,346.26L675.11,346.4L675.68,346.79L675.89,347.28L675.75,347.85L675.74,348.17L675.86,348.23L676.05,348.21L676.33,348.12L676.51,348.12L676.59,348.2L676.59,348.36L676.49,348.6L676.38,349.29L676.31,349.87L676.24,350.45L676.17,350.96L676.28,351.35L676.45,351.95L676.64,352.34L676.83,352.46L677.02,352.51L677.21,352.47L677.6,352.22L678.2,351.75L678.77,351.46L679.61,351.3L679.89,350.8L680.28,350.47L681.17,349.97L681.65,349.78L681.92,349.75L682.27,349.84L682.35,349.87L682.42,349.89L682.6,349.93L682.63,350.09L682.59,350.25L682.39,350.38L682.33,350.49L682.41,350.56L682.68,350.59L683.24,350.41L683.6,350.29L683.85,350.25L683.95,350.1L684.11,349.95L684.36,349.93L684.63,350.02L684.85,350.06L685.23,350.02L685.43,350.15L685.71,350.4L685.84,350.56z"/>
		<path id="AG" title="Antigua and Barbuda" class="land" d="M302.49,414.45l-0.09,0.12l-0.31,-0.05l-0.06,-0.15l-0.01,-0.1l0.2,-0.21l0.22,0.09l0.08,0.1l0.06,0.02l0,0.08l-0.02,0.06L302.49,414.45zM302.41,412.88l-0.04,0.08l-0.23,-0.14l-0.07,-0.26l0.01,-0.06l0.04,-0.03l0.09,0.05l0.12,0.02l0.08,0.09L302.41,412.88z"/>
		<path id="AI" title="Anguilla" class="land" d="M298.89,410.98L298.44,411.13L298.46,411.05L298.82,410.84L298.95,410.86z"/>
		<path id="AL" title="Albania" class="land" d="M532.01,331.21L532.12,331.29L532.35,331.67L532.5,332L532.81,332.11L532.98,332.24L533.19,332.44L533.3,332.63L533.44,333.23L533.46,333.59L533.42,333.75L533.38,333.79L533.25,334.38L533.28,334.68L533.28,334.87L533.16,334.95L533.09,335.07L533.21,335.56L533.2,335.76L533.2,336L533.42,336.54L533.55,336.7L533.67,336.78L533.82,337.28L533.91,337.36L534.27,337.31L534.45,337.37L534.52,337.49L534.54,337.57L534.51,337.84L534.6,338.05L534.72,338.27L534.72,338.41L534.64,338.62L534.5,338.88L534.3,338.97L534.09,339.06L533.99,339.25L533.94,339.46L533.84,339.62L533.79,339.79L533.7,340.13L533.67,340.26L533.53,340.39L533.31,340.44L533.11,340.45L532.97,340.51L532.91,340.62L532.78,340.72L532.7,340.76L532.7,340.87L532.8,341.09L532.9,341.26L532.9,341.41L532.85,341.45L532.69,341.43L532.65,341.48L532.64,341.64L532.59,341.78L532.53,341.86L532.41,341.95L532.2,341.92L532,341.78L531.89,341.74L531.83,341.75L531.82,341.41L531.73,341.15L531.41,340.53L530.38,339.92L530.14,339.65L530.03,339.42L529.93,339.2L530.03,339.19L530.13,339.25L530.26,339.31L530.31,339.2L530.26,338.97L529.99,338.41L529.97,338.25L530.1,337.78L530.32,337.26L530.3,336.62L530.37,336.13L530.3,335.82L530.26,335.43L530.42,334.92L530.55,334.79L530.64,334.63L530.64,334.08L530.34,333.82L529.98,333.77L529.99,333.58L530.04,333.29L530.01,333.19L530.04,333.02L529.95,332.79L529.81,332.63L529.95,332.34L530.14,331.99L530.33,331.71L530.55,331.42L530.7,331.14L530.86,330.9L531,330.83L531.07,330.88L531.1,330.98L531.09,331.29L531.14,331.4L531.24,331.48L531.44,331.44L531.66,331.36L531.96,331.2z"/>
		<path id="AM" title="Armenia" class="land" d="M606.17,344.65l-0.49,-0.02l-0.41,0.16l-0.16,-0.03l-0.1,-0.28l-0.09,-0.23l-0.26,-0.58l0.07,-0.24l-0.15,-0.14l-0.35,-0.25l-0.09,-0.1l0.05,-0.14l0.03,-0.26l-0.03,-0.21l-0.1,-0.06l-0.18,0l-0.22,0.05l-0.43,0.2l-0.3,-0.13l-0.17,-0.13l-0.1,-0.11l-0.22,0.09l-0.06,-0.04l-0.01,-0.27l-0.07,-0.14l-0.13,-0.17l-0.13,-0.08l-0.46,0.17l-0.28,0.06l-0.1,-0.16l-0.49,-0.51l-0.45,-0.39l-0.31,-0.16l-0.31,0.02l-0.48,0.08l-0.18,-0.03l-0.42,-0.17l-0.35,-0.21l0.05,-0.08l0.07,-0.06l-0.09,-0.27l-0.2,-0.43l0.02,-0.13l-0.06,-0.19l-0.07,-0.14l0.28,-0.34l0.13,-0.27l0.03,-0.26l-0.07,-0.28l-0.18,-0.5l-0.11,-0.15l-0.21,-0.14l-0.17,-0.22l-0.04,-0.16l0.15,-0.03l0.43,0l0.42,-0.05l0.33,-0.1l0.47,-0.09l0.19,-0.08l0.23,-0.04l0.69,0.08l0.26,-0.06l0.78,-0.01l0.02,-0.03l-0.11,-0.11l0,-0.04l0.46,-0.07l0.07,-0.05l0.06,0.17l0.17,0.19l0.19,0.08l0.1,0.1l0,0.08l-0.34,0.09l-0.02,0.05l0.02,0.05l0.1,0.02l0.47,0.23l0.27,0.01l0.14,0.07l0.07,0.14l0.22,0.19l0.18,0.18l0.01,0.06l-0.03,0.09l-0.5,0.36l-0.06,0.12l-0.01,0.13l0.22,0.39l0.32,0.42l0.47,0.32l0.64,0.35l0.01,0.22l-0.1,0.26l-0.09,0.17l-0.04,0.12l-0.08,0.05l-0.64,-0.01l-0.1,0.04l-0.04,0.05l0,0.04l0.23,0.08l0.36,0.27l0.21,0.27l0.22,0.12l0.24,0.21l0.19,0.2l0.3,0.25l0.34,-0.08l0.45,0.23l0.02,0.15l-0.03,0.14l-0.28,0.15l-0.04,0.06l0,0.05l0.04,0.07l0.17,0.12l0.19,0.18l0.22,0.27l-0.1,0.08l-0.2,0.01l-0.16,-0.03l-0.06,0.05l0,0.09l0.21,0.2l0.04,0.15l-0.01,0.26L606.17,344.65zM602.06,336.91l0.01,-0.1l-0.02,-0.09l-0.08,-0.03l-0.09,0.02l-0.01,0.1l0.03,0.09l0.09,0.04L602.06,336.91zM603.54,338.43l-0.11,0.06l-0.1,-0.03v-0.15l0.07,-0.06l0.08,0l0.08,0.05L603.54,338.43z"/>
		<path id="AO" title="Angola" class="land" d="M512.39,475.6l-0.04,0.05l-0.31,0.12l-0.33,0.12l-0.43,0.47l-0.22,0.2l-0.06,0.05l-0.2,0.11l-0.14,0.1l0,0.05l0.1,0.06l0.1,0.1l-0.01,0.77l-0.04,0.76l-0.05,0.06l-0.28,0.02l-0.37,0.05l-0.12,0.03l-0.04,-0.08l-0.12,-0.28l0.07,-0.26l0.07,-0.2l-0.08,-0.4l-0.19,-0.36l-0.2,-0.45l-0.06,-0.09l0.17,-0.15l0.25,-0.32l0.1,-0.17l0.29,-0.04l0.11,-0.12l0.08,-0.19l0.03,-0.11l0.33,-0.09l0.39,-0.16l0.22,-0.17l0.22,-0.11l0.14,0l0.09,0.05l0.25,0.3l0.22,0.19L512.39,475.6zM542.96,493.16l0.06,0.37l0.06,0.52l0.04,0.37l0.04,0.17l0.02,0.09l-0.05,0.1L543.1,495l-0.08,0.2l-0.04,0.14l0.04,0.25l-0.03,0.36l-0.03,0.38l-0.01,0.37l0.11,0.66l-0.01,0.2l-0.13,0.35l-0.1,0.26l-0.06,0.31l-0.01,0.16l0.24,0.45l-0.01,0.09l-0.18,0.03l-0.15,0.01h-0.58h-0.83h-0.83h-0.83h-0.77h-0.73h-0.65l0,0.45v0.92l0,0.92l0,0.92v0.92l0,0.92v0.93l0,0.93l0,0.93v0.67l0.17,0.89l0.31,0.97l0.12,0.09l0.31,0.18l0.43,0.37l0.24,0.28l0.49,0.48l0.66,0.61l0.63,0.55l0.56,0.49l-0.88,0.17l-1.25,0.24l-0.84,0.16l-1.02,0.2l-0.68,0.12l-0.85,0.16l-0.13,0l-0.23,-0.11l-0.49,-0.02l-0.58,0.15l-0.46,0.04l-0.34,-0.07l-0.33,-0.13l-0.32,-0.19l-0.56,-0.07l-0.79,0.05l-0.76,-0.04l-0.74,-0.13l-0.53,-0.05l-0.32,0.03l-0.34,-0.04l-0.36,-0.11l-0.3,-0.18l-0.36,-0.39l-0.29,-0.37l-0.07,-0.05l-0.09,-0.06l-0.09,-0.02l-0.81,-0.01l-0.77,-0.01l-0.44,0l-1.07,0l-1.07,0l-1.07,0l-1.07,0l-1.07,0l-1.07,0l-1.07,0l-1.07,0l-0.57,0l-0.53,0.03l-0.58,0.03l-0.08,-0.01l-0.14,-0.04l-0.09,-0.08l-0.31,-0.21l-0.27,-0.16l-0.37,-0.27l-0.24,-0.3l-0.2,-0.09l-0.36,-0.05l-0.27,-0.05l-0.22,-0.01l-0.39,0.14l-0.29,0.14l-0.21,0.13l-0.36,0.15l-0.3,0.15l-0.53,-0.02l-0.11,0.02l-0.29,-0.01l-0.28,-0.13l-0.28,0.01l-0.31,0.17l-0.45,0.07l0.1,-1.1l0.11,-0.49l0,-0.58l-0.06,-1.5l-0.08,-0.21l-0.05,-0.24l0.28,-0.18l0.14,-0.14l0.19,-0.25l0.14,-0.35l0.16,-0.77l0.58,-1.76l0.28,-1.72l0.35,-0.81l0.13,-0.91l0.97,-1.17l0.24,-0.72l0.5,-0.35l0.71,-0.38l0.51,-0.67l0.25,-0.46l0.28,-0.89l0,-0.92l0.18,-1.23l-0.04,-0.35l-0.27,-0.49l-0.05,-0.35l-0.25,-0.34l-0.26,-0.26l-0.12,-0.46l-0.46,-0.73l-0.13,-0.49l-0.22,-0.35l-0.04,-0.43l-0.12,-0.46l-0.22,-0.45l-0.22,-0.52v-0.16l0.14,-0.19l0.13,-0.06l-0.04,0.1l-0.09,0.12l0.02,0.09l0.86,-0.9l0.05,-0.18l-0.03,-0.2l0,-0.24l0.03,-0.28l-0.81,-1.66l-0.64,-1.54l-0.11,-0.78l-0.85,-1.02l-0.33,-0.66l-0.19,-0.47l-0.14,-0.18l0.05,-0.09l0.22,-0.02l0.49,-0.11l0.67,-0.12l0.62,-0.27l0.16,-0.12l0.33,-0.02l0.33,0.07l0.12,-0.05l0.07,0l0.78,0l0.32,-0.02l0.6,0.01l0.38,0.02l0.22,0.03l0.58,0.05l0.73,-0.01l0.26,-0.02l0.95,-0.02l0.94,-0.02l0.85,-0.01l0.94,0l0.72,0l0.33,0.1l0.3,0.18l0.13,0.17l0.06,0.07l0.09,0.18l0.16,0.14l0.06,0.22l-0.05,0.29l0.02,0.35l0.09,0.41l0.2,0.43l0.3,0.45l0.13,0.36l-0.04,0.27l0.09,0.28l0.22,0.3l0.16,0.16l0.09,0.12l0.25,0.46l0.47,0.73l0.35,0.55l0.12,0.07l0.18,-0.02l0.38,-0.05l0.38,-0.01l0.27,0.11l0.11,-0.02l0.41,-0.22l0.4,-0.07l0.42,-0.09l0.22,-0.09l0.25,0l0.69,0.17l0.13,0.01h0.56l0.56,-0.1l0.08,-0.73l0,-0.14l0.13,-0.27l0.17,-0.24l0.02,-0.23l-0.01,-0.31l0.12,-0.38l0.37,-0.3l0.6,-0.14l0.34,-0.03l0.54,-0.08l0.82,-0.09l0.3,0.01l0.02,0.04l-0.17,0.52l0,0.17l0.06,0.17l0.14,0.09l0.85,0.01l0.78,0.01l0.9,0.03l0.67,0.02l0.09,0.03l0.07,0.04l0.1,0.26l-0.02,0.51l-0.15,0.74l0.06,0.69l0.27,0.65l0.03,0.99l-0.09,0.59l-0.12,0.75l-0.05,0.85l0.12,0.35l0.26,0.37l0.39,0.39l0.3,0.5l0.22,0.62l0.08,0.39l-0.06,0.16l0,0.28l0.07,0.4l-0.07,0.26l-0.22,0.13l-0.07,0.18l0.11,0.34l0.03,0.31l0.09,0.12l0.06,0.09l0.1,0.01l0.22,-0.11l0.26,-0.21l0.21,-0.09l0.3,0.01l0.42,0.06l0.73,0.02l0.23,-0.04l0.68,-0.28l0.18,-0.02l0.27,0.03l0.38,0.08l0.39,0.02l0.19,-0.09l0.02,-0.11l0.06,-0.15L542.96,493.16z"/>
		<path id="AR" title="Argentina" class="land" d="M299.87,526.29l0.07,0.08l0,0.09l0.24,0.18l0.47,0.27l0.44,0.52l0.41,0.78l0.39,0.58l0.36,0.37l0.33,0.26l0.3,0.15l0.16,0.13l0.02,0.1l0.29,0.2l0.55,0.3l0.35,0.3l0.15,0.3l0.54,0.31l0.94,0.32l0.68,0.15l0.43,-0.01l0.61,0.26l0.8,0.53l0.49,0.37l0.18,0.21l0.52,0.33l1.3,0.69l0.57,0.17l0.27,0.16l0.16,0.2l0.16,0.06l0.16,-0.08l0.33,0.07l0.5,0.22l0.39,0.27l0.5,0.59l0.16,0.24l0.07,0.21l-0.02,0.19l-0.15,0.2l-0.28,0.21l-0.08,0.09l-0.01,0.09l-0.07,0.18l-0.23,0.38l-0.06,0.18l-0.01,0.13l-0.15,0.14l-0.39,0.27l-0.08,0.13l-0.02,0.14l-0.05,0.08l-0.05,0.03l-0.08,0.14l-0.06,0.23l-0.01,0.3l0.05,0.36l-0.01,0.12l-0.09,0.06l-0.05,0.08l-0.02,0.17l-0.07,0.12l-0.13,0.08l-0.05,0.09l0.03,0.1l-0.1,0.1l-0.22,0.1l-0.14,0.15l-0.05,0.19l-0.12,0.17l-0.2,0.15l-0.06,0.2l0.1,0.37l1.23,-0.13l1,0.14l1.18,0.36l0.78,0.13l0.39,-0.11l0.29,0.02l0.19,0.14l0.25,0.03l0.31,-0.08l0.26,0.06l0.21,0.21l0.19,-0.05l0.17,-0.31l0.19,-0.23l0.22,-0.14l0.27,-0.04l0.33,0.06l0.26,0.11l0.19,0.17l0.21,0l0.23,-0.18l0.11,-0.22l-0.01,-0.25l0.09,-0.18l0.19,-0.11l0.13,-0.15l0.07,-0.19l0.23,-0.11l0.39,-0.04l0.2,-0.09l0.02,-0.14l0.11,-0.13l0.21,-0.12l0.14,-0.15l0.08,-0.18l0.13,-0.11l0.18,-0.05l0.2,-0.37l0.22,-0.7l0.13,-0.94l0.04,-1.33l0.22,0l0.1,0.1l0.16,0.05l0.17,-0.11l0.14,-0.05l0.23,0l0.12,-0.13l0.14,-0.02l0.1,0.07l0.1,0.08l0.2,0.02l0.16,0.22l0.18,0.07l0.08,0.25l0.12,0.65l0.21,0.39l0.21,0.44l0.01,0.2l-0.12,0.2l-0.02,0.28l-0.07,0.7l-0.02,0.26l0.07,0.18l0.03,0.24l-0.12,0.3l-0.22,0.45l-0.22,0.12l-0.06,0l-0.29,0.26l-0.21,0.1l-0.12,-0.07l-0.14,0.11l-0.15,0.29l-0.19,0.13l-0.34,0.07l-0.1,0.03l-0.2,-0.01l-0.17,0.07l-0.14,0.16l-0.15,0.06l-0.16,-0.04l-0.15,0.06l-0.13,0.15l-0.08,0.17l-0.02,0.18l-0.13,0.12l-0.24,0.07l-0.08,0.09l0.01,0.13l-0.11,0.1l-0.4,0.1l-0.29,0.18l-0.18,0.26l-0.19,0.16l-0.3,0.1l-0.4,0.26l-0.06,0.16l0.15,0.15l0.06,0.13l-0.04,0.12l-0.13,0.02l-0.21,-0.09l-0.15,-0.02l-0.09,0.05l-0.04,0.09l0,0.14l-0.07,0.09l-0.15,0.05l-0.1,0.11l-0.04,0.18l-0.19,0.23l-0.34,0.27l-0.27,0.37l-0.2,0.46l-0.23,0.3l-0.27,0.15l-0.18,0.21l-0.1,0.27l-0.28,0.42l-0.47,0.57l-0.42,0.39l-0.38,0.21l-0.21,0.24l-0.05,0.27l-0.25,0.3l-0.45,0.34l-0.13,0.15l-0.1,0.13l-0.01,0.22l-0.17,0.29l-0.33,0.36l-0.12,0.31l0.15,0.39l0.02,0.48l-0.07,0.19l-0.15,0.06l-0.03,0.12l0.08,0.18l0,0.24l-0.07,0.3l-0.15,0.34l-0.24,0.38l-0.06,0.26l0.12,0.13l0.06,0.14l0,0.15l-0.05,0.21l-0.1,0.28l-0.15,0.21l-0.2,0.13l-0.06,0.17l0.08,0.21l0.01,0.21l-0.06,0.22l0.03,0.22l0.13,0.21l-0.01,0.24l-0.22,0.5l-0.05,0.31l0.14,1.31l-0.08,0.18l-0.14,0.21l-0.16,0.02l-0.19,-0.04l-0.14,0.13l-0.08,0.58l-0.26,1.26l0.05,0.3l0.21,0.49l0.08,0.31l0.06,0.24l0.05,0.45l-0.12,0.2l-0.11,0.04l-0.14,0.11l0.17,0.55l0.13,0.25l0.38,0.52l1.46,0.72l0.61,0.42l0.69,0.58l0.37,0.6l0.03,0.49l-0.55,0.74l-0.06,0.62l0.11,0.44l0.2,0.41l0.53,0.53l0.39,0.19l0.53,-0.02l0.09,0.15l0.05,0.13l0.08,1.07l-0.01,0.4l-0.15,0.37l-1.01,1.71l-0.86,1.05l-0.31,0.58l-0.11,0.63l-0.28,0.3l-1.5,0.95l-2.32,0.85l-1.88,0.44l-0.43,0.15l-3.02,0.49l-0.58,0.07l-0.76,-0.04l-0.62,0.06l-0.69,-0.13l-0.61,-0.15l-0.34,-0.38l-0.41,-0.05l-0.11,0.19l0.2,0.48l-0.1,0.59l0.12,0.33l0.24,0.07l0.23,0.17l0.2,0.23l-0.35,0.02l0.14,0.18l0.15,0.11l-0.02,0.39l-0.14,0.93l-0.34,0.2l-0.09,0.05l-0.1,0.2l-0.22,0.9l-0.07,0.58l0.09,0.38l0.41,0.79l-0.16,0.52l-0.26,0.28l-1.13,0.58l-0.45,0.23l-0.71,0.16l-1.15,0.03l-0.42,-0.04l-0.98,-0.53l-0.73,-0.32l-0.67,-0.25l-0.65,-0.15l0.09,-0.08l0.04,-0.14l-0.18,-0.08l-0.13,-0.02l-0.43,0.27l-0.18,0.28l-0.05,0.25l-0.01,0.59l0.08,0.49l0.31,1.22l0.03,0.67l-0.15,0.84l0.2,0.5l0.25,0.23l0.56,0.22l0.22,0.15l0.24,-0.02l0.07,0.06l-0.03,0.11l-0.14,0.21l0.01,0.23l0.42,0.07l0.44,-0.05l0.46,-0.1l0.11,-0.16l0,-0.33l-0.54,-0.06l0.07,-0.12l0.41,-0.13l0.53,-0.22l0.27,-0.04l0.19,0.15l0.13,0.13l0.15,0.35l0.1,0.47l0,0.56l-0.06,0.53l-0.08,0.19l-0.13,0.23l-0.96,0.29l-0.27,-0.08l-0.25,-0.4l-0.08,-0.42l-0.21,-0.28l-0.46,-0.22l-0.46,0.07l-0.45,0.39l-0.45,0.13l-0.16,0.35l1.12,0.57l0.53,0.16l0.17,-0.01l0.17,0.08l-0.16,0.21l-0.16,0.13l-0.79,0.29l-0.35,0.2l-0.41,0.4l-0.57,0.88l-0.18,0.19l-0.09,0.22l-0.06,0.61l0.19,1.01l-0.2,0.43l0.12,0.47l-0.07,0.32l-0.2,0.46l-0.8,0.72l-0.14,0.53l0.28,0.31l-0.02,0.27l-0.09,0.25l-0.33,0l-1.21,-0.17l-0.44,0.27l-0.41,0.33l-0.11,0.16l-0.14,0.1l-0.83,0.18l-0.17,0.12l-0.89,1.27l-0.38,0.79l-0.46,0.78l-0.12,0.33l-0.03,0.46l0.06,0.42l0.06,0.31l0.16,0.4l0.34,0.45l1.71,1.85l0.35,0.16l1.83,0.2l0.41,0.26l0.24,0.41l0.09,0.36l-0.1,0.92l-0.11,0.29l-0.2,0.26l-0.43,0.34l-0.52,0.18l0.15,0.13l0.21,-0.02l0.46,-0.11l0.2,0.11l0.15,0.37l-0.29,0.15l-0.09,0.18l-0.21,0.27l-1.06,1.08l-0.57,0.33l-0.52,0.44l-0.7,0.44l-0.27,0.25l-0.37,0.54l-0.57,0.58l-0.61,1.26l-0.02,0.25l0.09,0.16l-0.34,2.23l-0.12,0.26l-0.25,0.28l-0.65,0.47l-0.31,0.06l-0.41,-0.27l-0.23,-0.28l-0.23,-0.48l-0.28,-0.5l-0.01,0.18l0.1,0.3l-0.06,0.32l-0.71,0.14l-0.19,0.15l0.64,-0.07l0.43,0.1l0.18,0.12l0.17,0.24l0.15,0.29l-0.12,0.16l-0.35,0.13l-0.45,0.25l-0.53,0.44l-0.3,0.51l-0.13,0.37l-0.14,0.75l-0.04,0.5l-0.23,0.38l-0.35,0.34l0.02,0.08l0.23,-0.18l0.19,-0.06l0.16,0.46l0.22,0.92l0.1,0.64l-0.02,0.19l-0.06,0.26l-0.45,0.06l-0.4,-0.01l-0.29,0.11l0.16,0.12l0.27,-0.04l0.37,0.28l0.41,-0.12l0.19,0.18l0.14,0.17l0.63,1.35l0.55,0.84l0.28,0.5l-0.14,0.23l-0.05,-0.3l-0.36,-0.08l-0.35,-0.08l-0.59,-0.22l-0.79,-0.33h-0.79l-0.63,-0.28l-0.69,-0.31l-1.47,-0.03l-1.29,-0.02l-1.32,-0.02l-0.85,-0.01l-0.57,-0.01l-0.15,-0.12l0.05,-0.38l-0.21,-0.28l-0.3,-0.34l-0.37,-0.24l-0.18,-0.32l-0.21,-0.36l0.12,-0.32l0.18,-0.77l0,-0.34l-0.16,-0.24l-0.05,-0.33l0.05,-0.16l0.15,-0.12l0.09,-0.55l-0.07,-0.54l-0.11,-0.48l-0.15,-0.21l-0.19,-0.1l-0.14,-0.02l-0.31,0.18l-0.51,-0.04l-0.18,0.07l-0.25,0.19l-0.36,0.28l-0.2,-0.1l-0.06,-0.3l-0.13,-0.26l-0.08,-0.23l-0.06,-0.38l-0.11,-0.49l-0.21,-0.57l-0.32,-0.46l-0.02,-0.42l-0.06,-0.52l0.16,-0.5l-0.1,-0.42l-0.2,-0.5l0.06,-0.51l0.2,-0.28l0.06,-0.36l0.92,-0.06l-0.04,-0.48l0.15,-0.39l0.17,-0.35l0.15,-0.16l0.33,-0.14l0.38,-0.2l0.22,-0.23l0.1,-0.21l0.06,-0.27l0.02,-0.29l-0.06,-0.61l0.07,-0.19l0.24,-0.25l0.4,-0.22l0.17,-0.58l-0.1,-0.5l-0.22,-0.39l-0.28,-0.18l-0.02,-0.41l0.13,-0.38l0.17,-0.41l0.2,-0.47l-0.01,-0.33l0.18,-0.19l0.5,-0.43l0.17,-0.42l0.18,-0.11l0.21,-0.05l0.01,-0.24l-0.15,-0.23l-0.02,-0.29l0.02,-0.32l0.05,-0.43l0.23,-0.16l0.35,-0.35l0.09,-0.22l0.01,-0.3l-0.1,-0.61l-0.09,-0.44l-0.04,-0.16l-0.16,-0.3l-0.12,-0.19l0.19,-0.23l0.35,-0.25l0.15,-0.36l-0.14,-0.3l-0.2,-0.16l-0.06,-0.46l0.07,-0.58l0.15,-0.18l0.52,-0.09l0.05,-0.3l0.4,-0.42l-0.01,-0.4l-0.25,-0.25l-0.25,-0.4l-0.18,-0.35l-0.61,-0.19l-0.64,-0.1l-0.09,-0.33l0.02,-0.19l0.3,0.08l0.49,-0.07l0.37,-0.02l0.26,-0.03l0.3,-0.05l0.27,0.14l0.27,-0.09l0.11,-0.52l0.17,-0.28l0.02,-0.26l-0.17,-0.21l-0.32,-0.06l-1.39,-0.16L274.1,601l0.01,-0.35l0.05,-0.35l0,-0.17l0.13,-0.15l0.14,-0.32l0.1,-0.21l-0.1,-0.28l-0.22,-0.41l0.16,-0.19l0.01,-0.22l-0.05,-0.22l-0.23,-0.24l-0.2,-0.34v-0.36l0.24,-0.09l0.16,-0.11l0.04,-0.22l-0.09,-0.27l-0.33,-0.08l-0.44,-0.17l-0.13,-0.14l-0.12,-0.29l0.09,-0.81l-0.05,-0.49l-0.04,-0.27l0.11,-0.21l0.15,-0.19l-0.07,-0.43l-0.13,-0.23l0.05,-0.18l0.12,-0.18l0.11,-0.22l0.09,-0.05l0.14,0.12l0.23,-0.07l0.28,-0.17l0.03,-0.21l-0.06,-0.29l-0.21,-0.74l-0.19,-0.46l0.04,-0.16l0.07,-0.17l-0.06,-0.62l0.02,-0.38l0.01,-1.11l0.02,-0.38l-0.19,-0.38l0.03,-0.36l0.14,-0.26l0.13,-0.35l0.1,-0.31l0.1,-0.14l0.17,-0.07l0.04,-0.17l-0.08,-0.13l-0.22,-0.2l-0.05,-0.25l0.05,-0.19l0.11,-0.11l0.17,0l0.13,-0.27l0.04,-0.33l0.03,-0.15l-0.1,-0.19l-0.07,-0.46l-0.06,-0.26l0.08,-0.11l0.11,-0.04l0.19,0.06l0.13,-0.03l0.02,-0.14l0.02,-0.15l0.05,-0.1l0.12,-0.34l0.13,-0.42l0.03,-0.29l-0.05,-0.79l0.07,-0.18l0.14,-0.17l0.19,-0.16l0.25,-0.13l0.31,-0.19l0.38,-0.07l0.15,-0.21l0.11,-0.27l0.03,-0.22l-0.15,-0.16l-0.19,-0.19l-0.09,-0.47l-0.05,-0.43l-0.03,-0.54l-0.19,-0.47l-0.2,-0.52l-0.05,-0.46l0.07,-0.25l0.08,-0.4l-0.08,-0.18l-0.1,-0.33l0.1,-0.26l0.13,-0.4l-0.02,-0.2l-0.1,-0.48l-0.09,-0.27l0.09,-0.29l0.15,-0.27l0.11,-0.14l-0.02,-0.23l0.05,-0.19l0.22,-0.13l0.2,-0.23l0.15,-0.03h0.18l0.12,-0.07l0.05,-0.18l0.03,-0.2l0.28,-0.25l0.16,-0.23l0.3,-0.05l0.15,-0.25l0,-0.31l-0.03,-0.32l0.1,-0.37l-0.11,-0.56l0.01,-0.3l-0.11,-0.24l0.02,-0.26l-0.06,-0.17l-0.17,-0.06l-0.06,-0.21l0.08,-0.1l0.16,-0.08l0.21,-0.16l0.15,-0.77l0.07,-0.23l0.07,-0.27l-0.01,-0.14l0.1,-0.2l0.12,-0.31l0.19,-0.3l0.11,-0.21l0.11,-0.28l0.03,-0.17l0.14,-0.08l0.16,-0.02l0.19,-0.05l0.08,-0.1l-0.01,-0.15l-0.01,-0.33l-0.06,-0.52l-0.04,-0.67l0.03,-0.44l0.12,-0.44l0.12,-0.24l-0.03,-0.18l-0.03,-0.2l-0.21,-0.11l-0.2,0.1l-0.14,-0.03l-0.18,-0.23l-0.05,-0.25l0.03,-0.34l0.14,-0.21l0.06,-0.26l-0.08,-0.08l-0.18,-0.17l-0.17,-0.6l0.02,-0.51l-0.17,-0.14l-0.08,-0.4l-0.17,-0.14l-0.07,-0.3l-0.05,-0.31l0.02,-0.14l0.18,-0.04l0.1,-0.24l-0.08,-0.13l-0.14,-0.12l-0.18,0.01l-0.16,-0.14l-0.21,-0.58l-0.17,-0.32l0.05,-0.46l0.03,-0.36l0.07,-0.31l0.03,-0.24l0.13,-0.12l0.12,0.05l0.11,-0.03l0.11,-0.2l0.12,-0.12l-0.01,-0.1l-0.07,-0.11l-0.03,-0.19l0.08,-0.22l0.14,-0.51l0.21,-0.56l0.09,-0.21l-0.02,-0.18l0.05,-0.08l0.14,0.09l0.41,-0.1l0.14,-0.25l0.05,-0.22l0.12,-0.12l-0.05,-0.18l-0.17,-0.05l-0.1,-0.08l0.04,-0.2l0.06,-0.46l-0.01,-0.34l-0.15,-0.72l-0.12,-0.71l0.09,-0.24l0.27,-0.32l0.2,-0.15l0.04,-0.18l0.2,-0.83l0.02,-0.45l0.13,-0.25l0.09,-0.47l0.36,-0.41l0.11,-0.27l0.15,-0.03l0.08,-0.09l0.19,-0.3l0.25,-0.31l0.22,-0.15l0.05,-0.24l0.1,-0.33l0.21,-0.55l0.12,-0.38l0.16,-0.14l0.19,-0.5l0.08,-0.29l0.21,-0.12l0.17,-0.03l0.16,0.14l0.17,-0.03l0.15,-0.17l0.37,-0.12l0.17,-0.06l0.08,-0.17v-0.3l-0.15,-0.22l-0.31,-0.43l-0.27,-0.47l-0.03,-0.15l0,-0.16l0.05,-0.21l0.13,-0.23l0.32,-0.38l-0.03,-0.27l-0.24,-1.01l-0.09,-0.28l-0.16,-0.51l0.02,-0.2l0.14,-0.57l0.13,-0.23l0.18,-0.04l0.1,-0.08l0.03,-0.1l-0.12,-0.13l-0.05,-0.16l-0.05,-0.23l-0.17,-0.08l-0.1,-0.19v-0.28l0.15,-0.36l0.17,-0.1l0.07,-0.16l0.18,-0.15l0.16,-0.11l0.14,-0.21l0.57,-0.26l0.45,-0.2l0.88,-0.38l0.6,-0.26l0.06,-0.18l0.05,-0.12l0.28,-0.92l0.36,-1.18l0.23,-0.74l-0.52,-0.54l0.09,-0.15l0.3,-0.37l0.06,-0.3l0.12,-0.13l0.54,-0.3l0.09,-0.2l0.05,-0.22l0.11,-0.16l0.2,-0.03l0.37,-0.14l0.4,-0.13l0.12,-0.18l0.11,-0.32l0.1,-0.35l0.08,-0.08l0.13,0.01l0.21,0.09l0.11,0.13l0.56,0.42l0.25,0.24l0.24,0.03l0.47,-0.05l0.1,0.01l1.2,0.01l0.18,0.02l0.42,0.1l0.24,0.08l0.16,0.04l0.27,0.13l0.23,0.43l0.13,0.34l0.09,0.3l0.2,0.53l0.14,0.2l0.05,-0.1l0.12,-0.58l0.16,-0.34l0.22,-0.38l0.44,-0.88l0.15,-0.13l0.17,-0.06l0.12,-0.01l0.12,0.07l0.16,0l0.12,-0.07l1.15,-0.01l1.19,-0.01l0.03,0.01l0.05,0.15l0.2,0.33l0.22,0.18L299.87,526.29zM302.05,581.65l0.03,0.23l-0.15,-0.03l-0.35,-0.22l-0.12,-0.2l-0.03,-0.09l0.35,0.09l0.17,0.08L302.05,581.65zM283.02,646.67l0.02,-1.1l0.02,-1.46l0,-1.3l0,-1.26l0,-1.29l0,-1.28l0,-1.36l0,-1.38l0.17,0.2l0.65,0.95l0.17,0.39l0.11,0.46l-0.26,-0.29l-0.28,0.17l-0.14,0.27l-0.12,0.3l0,0.21l0.09,0.18l0.27,0.16l0.65,0.05l0.05,0.06l0.38,1.15l0.19,0.26l0.22,0.21l0.51,0.59l0.49,0.64l0.58,0.61l0.63,0.47l0.57,0.36l0.55,0.44l0.58,0.61l0.64,0.45l0.68,0.32l0.69,0.26l1.06,-0.1l0.33,0.03l0.2,0.19l-0.21,0.54l-0.26,0.43l-0.35,0.18l-0.37,0.07l-0.34,-0.01l-0.33,-0.08l-0.31,0.04l-0.3,0.18l-0.31,0.09l-0.32,0.01l-0.31,0.15l-0.32,0.11l-0.33,-0.09l-0.85,-0.43l-0.55,-0.1l-1.87,-0.17l-0.6,-0.1l-0.6,-0.15l-0.31,-0.01l-0.45,0.1l-0.36,-0.01L283.02,646.67zM294.54,646.01l0.31,0.11l0.61,-0.08l0.32,0l0.14,0.04l0.06,0.06l0.42,-0.09l0.19,0.01l-0.05,0.21l-0.39,0.21l-0.16,-0.09l-0.83,0.02l-0.37,0.21l-0.16,0l-0.36,0.3l-0.26,-0.19l-0.07,-0.18l0.19,-0.25l0.18,0l0.12,-0.1L294.54,646.01z"/>
		<path id="AS" title="American Samoa" class="land" d="M1006.89,503.11L1006.77,503.13L1006.63,503L1006.91,502.89L1007,502.84L1007.34,502.86L1007.13,502.91z"/>
		<path id="AT" title="Austria" class="land" d="M523.28,306.99L523.27,307.04L523.25,307.19L523.14,307.4L523.02,307.66L523.03,307.89L523.33,308.68L523.6,309.16L523.65,309.35L523.82,309.49L523.66,309.66L523.63,309.92L523.52,310.04L523.49,310.19L523.54,310.33L523.54,310.5L523.6,310.73L523.33,310.78L523.02,310.77L522.91,310.79L522.81,310.85L522.7,310.82L522.42,310.6L522.26,310.55L522.15,310.56L522.07,310.66L521.92,310.78L521.79,310.87L521.82,310.94L522.4,311.14L522.5,311.44L522.39,311.69L522.35,311.81L522.22,311.9L522.05,311.99L521.85,312.01L521.82,312.14L521.9,312.53L521.84,312.61L521.77,312.73L521.83,313.05L521.96,313.08L521.99,313.15L521.96,313.28L521.94,313.42L521.9,313.56L521.88,313.62L521.79,313.67L521.53,313.64L521.31,313.77L520.86,314.21L520.71,314.29L520.54,314.47L520.55,314.86L520.53,314.89L520.48,314.97L519.95,314.83L519.93,314.84L519.57,314.89L519.33,315.06L519.03,315.17L518.41,315.11L517.8,315.18L517.66,315.23L517.5,315.26L517.35,315.37L517.27,315.51L517.11,315.7L516.9,315.84L516.67,315.95L516.61,316.05L516.53,316.1L516.4,316.03L516.3,316.03L516.17,315.99L515.74,315.93L515.27,315.85L515.05,315.77L514.79,315.7L514.52,315.65L514.27,315.64L514.15,315.61L513.56,315.47L513.17,315.46L512.66,315.4L511.64,315.18L511.34,315.09L511.06,315.07L510.72,314.99L510.47,314.87L510.3,314.64L510.13,314.32L509.81,313.92L509.74,313.71L509.84,313.54L509.94,313.4L509.93,313.34L509.85,313.32L509.29,313.49L508.75,313.71L508.53,313.72L508.33,313.67L508.05,313.66L507.79,313.72L507.26,313.75L506.95,313.91L506.75,314.23L506.64,314.48L506.55,314.57L506.37,314.6L506.09,314.57L505.9,314.5L505.7,314.28L505.39,314.25L505.11,314.25L505.04,314.21L505.04,314.06L504.93,313.8L504.75,313.71L504.27,314.22L504.14,314.26L503.76,314.12L503.42,313.91L503.38,313.75L503.33,313.62L503.05,313.5L502.7,313.42L502.59,313.42L502.63,313.34L502.67,313.21L502.65,313.11L502.56,313L502.52,312.89L502.5,312.78L502.48,312.69L502.46,312.61L502.44,312.54L502.67,312.04L502.71,311.73L502.51,311.55L502.43,311.49L502.5,311.45L502.78,311.48L502.96,311.38L503.06,311.28L503.31,311.38L503.68,311.57L503.86,311.7L503.93,311.8L503.97,311.89L503.95,312.03L504.04,312.09L504.21,312.11L504.33,312.16L504.29,312.35L504.28,312.51L504.44,312.48L504.64,312.36L504.8,312.15L504.9,311.94L504.97,311.42L505,311.38L505.12,311.42L505.61,311.4L505.85,311.49L506.21,311.51L506.21,311.59L506.27,311.71L506.44,311.89L506.52,312.01L506.69,312.03L506.95,311.97L507.11,311.9L507.17,311.95L507.41,311.9L507.62,311.76L507.67,311.64L507.89,311.57L508.18,311.39L508.58,311.25L509.9,311.1L509.95,310.98L509.93,310.72L509.96,310.69L510.13,310.75L510.4,310.81L510.6,310.9L510.73,311.02L510.86,311.03L511.04,310.94L511.3,310.89L511.54,311.01L511.61,311.15L511.57,311.22L511.57,311.33L511.65,311.42L511.84,311.56L512.09,311.69L512.22,311.68L512.27,311.56L512.32,311.26L512.34,310.95L512.28,310.77L512.14,310.72L511.98,310.71L511.9,310.67L511.93,310.57L512.06,310.31L512.05,309.97L511.76,309.57L511.51,309.19L511.51,309.06L511.66,308.84L511.9,308.66L512.41,308.36L512.58,308.29L512.79,308.24L513.09,308.12L513.24,307.99L513.33,307.86L513.47,307.14L513.51,307.11L513.55,307.06L514.08,307.31L514.13,307.27L514.22,307.23L514.39,307.04L514.43,306.9L514.42,306.62L514.44,306.36L514.47,306.28L514.55,306.31L514.78,306.44L514.96,306.6L515.13,306.98L515.52,307.08L516.02,307.09L516.2,306.92L516.36,306.88L516.54,306.93L516.93,306.99L516.97,306.68L517.2,306.36L517.3,306.25L517.58,306.26L517.65,306.02L517.72,305.36L517.78,305.28L517.98,305.3L518.19,305.42L518.25,305.52L518.36,305.51L518.51,305.44L518.67,305.4L518.93,305.47L519.48,305.77L519.76,305.88L519.94,305.86L520.11,305.87L520.76,306.33L521.22,306.4L521.63,306.4L521.77,306.26L521.94,306.14L522.13,306.15L522.29,306.22L522.6,306.42L522.75,306.47L522.94,306.5L523.08,306.55L523.21,306.9z"/>
		<path id="AU" title="Australia" class="land" d="M841.68,494.39l-0.1,-0.26l0.04,-0.06l0.05,-0.03l0.07,0.01l0.26,0.27l0.11,0.08l0.17,0.2l0.38,0.02l0.45,-0.21l0.21,0.09l0.1,-0.02l0.33,-0.2l0.21,-0.06l0.14,-0.15l0.15,0.16l0.33,0.19l0.1,0.2l0.14,0.09l0.05,0.06l-0.2,0.21l-0.03,0.22l-0.21,-0.02l-0.25,0.37l-0.96,0.61l-0.86,-0.52l-0.37,-0.35l-0.25,-0.49L841.68,494.39zM860.15,507.08l0.03,0.14l0.15,0.14l0.12,-0.13l-0.06,-0.12l-0.02,-0.22l-0.15,-0.2l-0.07,0.17l-0.06,0.04l-0.06,0.13L860.15,507.08zM866.47,509.96l0.12,0l0.2,-0.07l0.1,-0.14l0.11,0.04l0.22,-0.26l0.15,-0.13l0.39,-0.04l-0.26,-0.32l-0.05,-0.02l-0.36,0.13l-0.47,0.08l-0.18,0.18l-0.19,0.29l-0.04,0.26l0.03,0.08L866.47,509.96zM874.69,491.13l0.07,-0.2l-0.12,-0.09l-0.14,0.2l0.12,0.17L874.69,491.13zM859.06,494.6l0.4,-0.52l0.11,-0.52l-0.14,0.03l-0.01,0.23l-0.05,0.15l-0.06,0.05l-0.11,0.1l-0.25,0.42l-0.11,0.1l0.01,0.13L859.06,494.6zM847.54,493.99l0.22,0.44l0.06,-0.04l0.1,-0.38l-0.09,-0.18l-0.01,-0.31l-0.04,-0.08l-0.12,0.17l-0.15,0.03l0.09,0.22L847.54,493.99zM858.45,495.19l0.26,-0.21l0.03,-0.12l-0.08,0.06l-0.51,0.25l-0.24,0.29l0.44,-0.21L858.45,495.19zM859.76,506.79l0.04,-0.02l0.08,-0.09l-0.04,-0.25l-0.09,0.12L859.76,506.79zM874.59,492.51l-0.01,0.08l0.03,0.18l0.15,0.09l0.23,-0.16l-0.22,-0.32L874.59,492.51zM858.79,506.66l0.03,0.13l0.05,0.01l0.17,-0.01l0.06,-0.24l-0.07,-0.03l-0.18,0.03L858.79,506.66zM859.87,502.67l-0.28,-0.11l-0.1,-0.12l-0.01,-0.12l0.12,-0.36l0.08,-0.11l0.08,-0.03l0.18,-0.2l-0.04,-0.12l-0.06,-0.07l-0.07,-0.04l-0.11,0.26l-0.13,0.01l-0.12,-0.12l-0.05,-0.22l0.02,-0.13l-0.13,-0.02l-0.2,0.13l-0.14,0.21l-0.31,0.2l-0.04,0.42l0.05,0.33l-0.1,0.14l-0.16,0.1l0.08,0.05l0.27,0.02l0.53,0.13l0.32,-0.02l0.37,0.06l0.1,-0.14l0.05,-0.18l-0.05,-0.02L859.87,502.67zM900.15,530.96l0.07,-0.04l0.1,-0.13l-0.06,-0.16l-0.13,-0.22l0.03,-0.2l-0.08,-0.05l-0.09,0.01l-0.1,-0.08l-0.24,-0.09l-0.08,0.21l0.42,0.64L900.15,530.96zM905.24,537.12l0.07,-0.08l0.02,-0.21l0.16,-0.52l0.59,-1.39l0.03,-0.26l-0.17,-0.19l-0.04,-0.54l-0.07,-0.03l-0.09,0.03l-0.12,0.08l-0.1,0.15l0.12,0.05l0.16,0.28l-0.04,0.26l-0.11,0.2l-0.42,0.38l0.06,0.34l-0.03,0.16l-0.15,0.29l-0.06,0.32l0.08,0.55L905.24,537.12zM906.27,541.97l0.06,-0.05l-0.04,-0.36l0.11,-0.51l-0.1,-0.03l-0.15,0.06l-0.04,0.28l0.03,0.3L906.27,541.97zM906.22,542.52l-0.01,0.5l0.09,0.13l0.07,0.02l0.24,-0.87l-0.05,-0.04l-0.24,-0.05L906.22,542.52zM898.12,526.56l0.09,-0.05l-0.08,-0.24l-0.09,-0.05l-0.01,0.17l-0.06,0.12l0.07,0.05L898.12,526.56zM896.47,526.17l0,-0.13l-0.04,-0.3l-0.1,0.08l-0.02,0.23l0.07,0.22L896.47,526.17zM885.77,514.56l0.21,0.21l0.13,0.26l0.18,0.1l0.08,-0.11l0.04,-0.14l-0.12,-0.22l-0.06,-0.28l-0.08,-0.02l-0.05,0.05l-0.12,0.04l-0.25,-0.01L885.77,514.56zM875,491.41l0.17,-0.18l-0.11,-0.15l-0.22,0.03l-0.07,0.14l0.06,0.1L875,491.41zM893.69,520.05l0.06,-0.05l0.03,-0.27l-0.1,0.07l-0.07,0.1l-0.05,0.12l0.07,0.03L893.69,520.05zM893.83,520.5l0.09,0l0.07,-0.03l0,-0.04l-0.11,-0.17l-0.07,-0.2l-0.12,0.39L893.83,520.5zM867.09,510.93l-0.14,0.12l0.04,0.12l0.11,-0.05l0.31,-0.06l-0.03,-0.15l-0.19,-0.15L867.09,510.93zM884.01,578.72l-0.17,-0.15l-0.37,0.02l-0.03,0.08l-0.02,0.18l0.16,0.11L884.01,578.72zM891.89,584.6l-0.08,-0.07l-0.26,-0.1l-0.5,-0.66l-0.19,-0.11l-0.26,0.38l-0.2,0.14l0.13,0.15l0.18,-0.02l0.08,0.24l-0.04,0.16l0.38,0.58l0.06,0.15l0.08,0.1l0.09,0.08l0.29,-0.1l0.25,-0.22l0.04,0l0.03,-0.11l-0.2,-0.16l0.11,-0.12L891.89,584.6zM891.72,586.54l-0.05,-0.04l-0.07,-0.01l-0.21,0.07l0.03,0.08l0.17,0.18L891.72,586.54zM883,579.34l0.4,-0.03l0.24,0.13l-0.02,-0.07l-0.1,-0.17l-0.07,-0.07l-0.2,-0.05L883,579.34zM882.04,586.51l0.02,-0.24l-0.02,-0.02l-0.09,0.13l-0.12,0.06l0.11,0.38L882.04,586.51zM857.83,501.34l-0.07,0.05l-0.03,0.08l0,0.1l0.25,0.06l0.07,-0.03l0.11,-0.1l-0.05,-0.24l-0.12,-0.12L857.83,501.34zM921.64,644.99l-0.17,0.96l0.03,0.22l0.09,-0.19l0.19,-0.65l0.04,-0.5L921.64,644.99zM891.98,585.78l-0.36,0.19l-0.39,0l-0.14,0.09l0.03,0.09l0.23,0.17l0.31,0.02l0.3,-0.08l0.09,0.23l0.14,-0.04l0.2,-0.2l-0.15,-0.24L891.98,585.78zM892.02,592.48l-0.04,-0.14l-0.07,-0.13v-0.13l0.04,-0.29l-0.08,-0.42l0.03,-0.64l-0.03,-0.34l0.01,-0.34l0.06,-0.43l-0.02,-0.43l-0.04,-0.22l-0.02,-0.22l0.02,-0.62l-0.22,-0.34l-0.51,-0.27l-0.18,0l-0.27,0.34l-0.16,0l-0.55,-0.1l-0.12,0.11l-0.22,0.33l-0.13,0.14l-0.19,-0.06l-0.19,-0.11l-0.14,0.01l-0.14,0.09l-0.32,0.04l-0.33,-0.01l-0.2,0.09l-0.18,0.15l-0.06,0.19l0.03,0.22l-0.17,-0.2l-0.17,-0.13l-0.21,0.14l-0.21,0.1l-0.72,0.08l-0.58,-0.17l-0.81,-0.35l-0.13,-0.1l-0.12,-0.13l-0.13,-0.08l-0.31,-0.13l-0.12,-0.15l-0.14,-0.04l-0.16,0.02l-0.22,-0.12l-0.19,-0.21l-0.17,-0.02l-0.18,0.09l-0.33,-0.01l-0.63,-0.24l-0.28,-0.18l-0.03,0.41l-0.18,0.73l0.05,0.36l0.1,0.42l0.19,0.56l0,0.18l0.03,0.11l0.39,0.84l0.39,0.69l0.51,0.72l0.06,0.33l-0.07,0.34l0.17,-0.02l0.1,-0.17l0.02,0.17l0.06,0.14l0.44,0.48l0.03,0.13l-0.17,0.4l-0.09,-0.33l-0.17,-0.26l-0.49,-0.41l0.11,0.85l0.09,0.34l0.62,1.46l0.08,0.09l0.14,0.06l0.12,0.12l0.2,0.3l0.34,0.64l0.2,0.19l0.29,-0.06l0.42,0.13l0.14,-0.04l0.09,0.06l0.05,0.15l-0.33,0l-0.32,0.08l-0.04,0.12l0.09,0.14l0.08,0.39l0.4,-0.13l0.64,0.03l0.38,-0.04l0.42,0.36l0.38,0.07l0.11,-0.03l0.23,-0.42l0.14,-0.51l0.09,-0.19l0.12,-0.17l-0.25,-0.22l-0.01,-0.11l0.03,-0.13l0.49,0.38l0.2,-0.15l0.04,-0.34v-0.21l0.06,-0.15l0.12,-0.07l0.05,-0.19l0.01,-0.15l-0.13,-0.33l-0.01,-0.19l0.31,0.39l0.12,0.53l0.24,-0.14l0.03,-0.08l-0.04,-0.37l0.11,-0.12l0.34,0.1l0.3,0.21l0.02,0.1l-0.02,0.1l-0.07,0.09l-0.24,-0.09l-0.11,0.16l0.14,0.39l0.24,0.37l0.15,-0.1l0.3,-0.05l0.1,-0.1l-0.06,-0.75l-0.12,-0.55l-0.01,-0.6l0.03,-0.33l0.14,-0.25l0.1,-0.27l-0.01,-0.34l0.05,-0.32l0.12,-0.34l0.17,-0.25l0.08,-0.06l-0.04,-0.07l0.07,-0.22l0.13,-0.16l0.08,0.19l-0.1,0.08l-0.06,0.09l0.2,0.14l0.06,0.13l0.02,0.14l-0.02,0.17l0.04,0.13l0.12,0.03l0.03,-0.17l-0.03,-0.21L892.02,592.48zM906.71,544.84l-0.34,-0.61l-0.08,-0.48l-0.12,-0.41l-0.53,-1.15l-0.23,-0.66l0.13,-0.66l-0.22,-2.12l0.23,-1.06l-0.11,-0.13l-0.27,-0.16l-0.12,-0.17l-0.18,-0.4l-0.02,-0.79l-0.35,-0.49l-0.38,-0.22l-0.26,-0.4l-0.17,-0.33l-0.02,-0.18l-0.1,-0.31l-0.29,-0.21l-0.2,-0.1l-0.43,-0.31l-0.21,-0.32l-0.43,-0.9l-0.2,-0.24l-0.4,-0.26l-0.32,-0.01l-0.21,-0.06l-0.74,-0.57l-0.23,-0.13l-0.19,-0.27l-0.28,-0.29l-0.16,-0.21l-0.25,-0.23l-0.17,-0.86v-0.83l-0.05,-0.99l-0.26,-0.48l-0.14,-0.15l-0.15,0.05l-0.01,0.31l0.04,0.21l-0.11,0.01l-0.38,-0.27l-0.48,-0.29l-0.26,-0.32l-0.19,-0.3l-0.16,0.01l-0.11,0.05l-0.11,0.37l0.18,0.64l-0.09,0.09l-0.15,-0.15l-0.28,-0.34l-0.14,0.11l-0.19,0.04l-0.17,-0.34l-0.14,-0.21l-0.2,-0.71l-0.18,-0.78l-0.02,-0.56l-0.35,-0.31l-0.14,-0.53l-0.11,-0.15l-0.1,-0.37l-0.41,-0.49l-0.42,-0.35l-0.34,-0.33l-0.3,-0.46l0.13,-0.33l0.21,0.07l0.22,-0.03l-0.18,-0.34l-0.17,-0.23l-0.45,-0.43l-0.21,-0.11l-0.45,-0.06l-0.5,-0.39l-0.3,-0.17l-0.21,-0.03l-0.25,-0.06l-0.18,-0.22l-0.31,-0.07l-0.44,-0.44l-0.21,-0.44l-0.11,-0.16l-0.15,-0.12l-0.22,0.07l-0.18,0.03l-0.39,-0.06l-0.13,-0.18l-0.25,-0.23l-0.49,-0.06l-0.38,-0.14l-0.29,-0.14l-0.3,-0.18l-0.27,-0.3l-0.24,-0.4l0.04,-0.51l0.06,-0.33l-0.31,-0.13l-0.54,-0.7l-0.03,-0.29l0.14,-0.58l0.15,-1l-0.21,-0.74l-0.42,-0.91l0.03,-0.46l-0.21,-0.01l-0.23,-0.09l-0.33,-0.45l-0.25,-0.29l-0.17,-0.27l-0.18,-0.37l0.03,-0.29l0.04,-0.2l0.02,-0.52l-0.23,-0.51l-0.07,-0.52l-0.22,-0.65l0.06,-0.43l-0.05,-0.36l-0.07,-0.31l0.07,-0.2l0.03,-0.25l-0.3,-0.25l-0.32,-0.19l-0.42,-0.34l-0.75,-0.52l-0.17,-0.4l-0.32,-0.35l-0.42,0.14l-0.31,0.06l-0.29,0.27l-0.4,0.2l-0.39,-0.18l-0.19,-0.15l-0.14,-0.53l-0.18,-0.58l-0.15,-0.29l-0.11,-0.35l0.11,-0.85l-0.16,-0.4l-0.05,-0.6l-0.15,-0.68l-0.17,-0.34l0.01,-0.28l-0.31,-0.4l-0.1,-0.29l-0.18,-0.1l-0.23,-0.16l-0.03,-0.22l0.02,-0.16l0.13,-0.27l0.07,-0.35l-0.32,-0.09l-0.22,-0.01l-0.15,-0.11l-0.17,-0.17l-0.06,-0.54l0.01,-0.57l-0.04,-0.36l-0.09,-0.26l-0.07,-0.28l-0.16,-0.3l-0.48,-0.39l0.04,-0.16l0.11,-0.2l-0.17,-0.12h-0.25l-0.14,0.27l-0.23,0.23l-0.44,0.18l-0.08,0.93l-0.28,1.02l-0.25,0.75l0.05,0.23l-0.02,0.22l-0.13,-0.1l-0.12,-0.12l-0.18,0.3l-0.33,0.77l-0.03,0.4l0.19,0.11l0.13,0.11l0.16,0.03l0.07,0.1l0.04,0.19l0.1,0.17l-0.03,0.18l-0.13,-0.07l-0.26,0l-0.13,0.16l-0.34,0.31l0.09,0.9l-0.16,0.48l-0.15,0.37l-0.17,0.7l0.02,0.37l0.15,0.26l0.17,0.39l-0.1,0.53l-0.1,0.38l0.23,1.1l0.06,0.59l-0.12,0.4l-0.36,1.19l-0.16,0.87l0.05,0.48l-0.16,0.44l-0.18,0.7l-0.2,0.53l-0.71,1.07l-0.14,0.52l-0.24,0.65l-0.51,0.38l-0.39,0.24l-0.85,0.23l-0.49,-0.01l-0.25,-0.14l-0.14,-0.12l-0.58,-0.21l-0.7,-0.47l-0.54,-0.15l-0.27,-0.47l-0.03,-0.19l-0.1,-0.25l-0.28,-0.33l-0.53,-0.11l-0.55,-0.24l-0.34,0.03l-0.73,-0.21l-0.49,-0.29l-0.45,-0.41l-0.59,-0.71l-0.5,-0.19l-0.64,-0.29l-0.37,-0.24l-0.22,-0.12l-0.25,-0.18l-0.22,0.04l-0.39,0.01l-0.24,-0.17l-0.03,-0.13l0.04,-0.11l0.01,-0.19l-0.08,-0.03l-0.09,0l-0.07,0.05l-0.1,0.04l-0.34,-0.15l-0.48,-0.25l-0.09,-0.22l-0.15,-0.27l-0.66,-0.39l-0.38,-0.32l-0.85,-0.46l-0.22,-0.22l-0.07,-0.19l-0.06,-0.28l0.19,-0.29l0.18,-0.21l0.58,-0.86l0.17,-0.15l0.22,-0.23l0.2,-0.63l0.1,-0.36l-0.17,-0.54l-0.01,-0.91l0.67,-0.35l0.19,-0.05l0.17,-0.08l0.2,0.11l0.13,0.17l0.14,-0.03l0.37,-0.63l-0.06,-0.26l-0.16,-0.23l0.05,-0.14l1.15,-1.24l-0.14,-0.3l-0.17,-0.07l-0.33,0.02l-0.31,-0.27l-0.19,-0.5l-0.27,-0.02l-0.49,0.51l-0.06,0.12l0.12,0.07l0.1,0.31l-0.19,0.37l-0.19,0l-0.31,-0.04l-0.14,-0.26l-0.06,-0.4l-0.2,-0.11l-0.23,0.08l-0.19,0.14l-0.13,0.04l-0.11,-0.09l-0.01,-0.17l0.29,-0.28l0.24,-0.18l0.02,-0.07l-0.17,-0.05l0.03,-0.13l0.22,-0.23l-0.1,-0.01l-0.27,0.24l-0.29,0.14l-0.38,0.3l-0.55,0.2l-0.38,0.26l-0.53,-0.08l-0.49,-0.26l-0.11,-0.14l-0.24,-0.2l-0.54,0.22l-0.34,-0.02l-0.19,-0.08l-0.32,-0.05l-0.27,-0.19l-0.66,-0.31l-0.7,-0.06l-0.34,0.01l-0.25,-0.16l-0.24,-0.09l-0.48,-0.06l-0.2,-0.24l-0.25,-0.48l-0.18,-0.13l-0.29,-0.05l-0.31,0.22l-0.18,0.1l-0.35,-0.39l-0.63,-0.41l-0.2,-0.06l-0.11,0.1l-0.08,0.19l-0.12,0.02l-0.14,-0.09l-0.25,-0.24l-0.16,-0.04l-0.42,0.26l0.03,0.09l0.34,0.13l0.36,0.36l0.17,0.07l0.4,-0.09l0.55,0.07l0.56,0.45l-0.08,0.22l-0.04,0.31l0.01,0.34l-0.01,0.23l0.23,0.25l-0.1,0.02l-0.26,-0.06l-0.21,0.07l-0.19,0.12l-0.09,0.34l-0.11,-0.16l-0.33,-0.15l-0.2,0.12l-0.33,0.15l-0.3,-0.06l-0.19,-0.08l-0.45,0.13l-0.81,0l-0.27,-0.19l-0.08,-0.33l-0.06,-0.08l-0.07,0.15l-0.13,0.17l-0.49,0.03l-0.07,0.07l0.03,0.16l-0.02,0.21l-0.19,0.02l-0.23,0.05l0.03,0.25l0.04,0.2l-0.09,0.1l-0.25,-0.18l-0.11,-0.19l-0.18,-0.06l-0.14,0.07l-0.04,0.17l0.02,0.44l-0.13,0.05l-0.33,-0.02l-0.15,0.08l-0.23,0.56l-0.42,0.21l-0.06,0.29l-0.03,0.25l0.35,0.45l-0.17,0.23l-0.18,0.19l-0.18,0.08l-0.38,0.07l-0.28,0.2l-0.12,0.22l-0.02,0.21l-0.08,0.26l-0.12,0.31l-0.02,0.17l-0.25,0.17l-0.45,0.5l-0.23,0.52l0.3,0.28l0.35,0.2l0.25,-0.01l0,0.05l-0.26,0.21l0.16,0.21l0.25,0.2l0.15,0.03l0.11,0.08l-0.24,0.05l-0.35,0.02l-0.07,0.22l0.04,0.25l0.06,0.22l-0.04,0.15l-0.13,-0.1l-0.06,-0.16l-0.3,-0.33l-0.22,-0.1l-0.32,-0.08l-0.1,0.1l0.01,0.5l-0.06,0.23l-0.11,-0.13l-0.03,-0.37l-0.3,-0.3l-1.19,-0.3l-0.17,-0.02l-0.28,0.04l-0.19,0.12l-0.02,0.12l-0.13,0.09l-0.21,0.11l-0.19,0.16l-0.12,0.14l-0.01,0.17l0.15,0.32l0.09,0.09l-0.01,0.15l-0.15,-0.16l-0.13,-0.05l-0.12,0.25l-0.12,0.05l0.03,-0.7l0.12,-0.47l0.1,-0.28l0.11,-0.22l-0.05,-0.12l-0.82,-0.65l-0.35,-0.53l-0.25,-0.3l-0.4,-0.29l-0.21,-0.18l-0.46,-0.28l-0.54,-0.19l-0.26,-0.26l-0.29,-0.09l-0.36,0.13l-0.03,0.24l0.04,0.24l-0.29,0.39l-0.31,0.21l-0.25,-0.24l-0.22,-0.17l-0.22,0.12l-0.07,0.21l-0.11,0.08l-0.08,-0.14l-0.12,-0.32l-0.18,-0.13l-0.18,0.06l0.05,0.25l0.11,0.14l-0.03,0.2l-0.13,0.09l-0.03,0.19l-0.08,0.25l0.01,0.35l-0.21,0.07l-0.16,0.28l-0.11,-0.06l-0.03,-0.18l-0.06,-0.19l-0.23,-0.07l-0.08,0.17l-0.05,0.06l-0.08,0.01l0.05,-0.14v-0.27l0.07,-0.28l-0.22,-0.1l-0.09,0.06l0,0.24l-0.05,0.35l-0.21,0.06l-0.19,0.16l-0.28,0l-0.14,0.08l-0.05,0.19l-0.25,0.19l0,0.23l0.17,0.23l0.01,0.2l0.39,0.21l-0.02,0.21l-0.06,0.1l-0.15,-0.04l-0.32,-0.18l-0.33,-0.04l-0.1,-0.08l-0.04,0.06l0,0.14l-0.13,0.1l-0.18,0.01l-0.21,0.15l0.15,0.23l-0.03,0.09l0.07,0.11l0.32,0.02l0.14,-0.03l0.01,0.2l-0.04,0.2l-0.13,0.07l-0.13,-0.18l-0.62,-0.34l-0.16,-0.03l-0.03,0.11l0.03,0.14l-0.13,0.17l-0.23,0.22l-0.16,-0.06l-0.19,0.05l-0.12,0.38l-0.04,0.38l0.21,0.27l0.14,0.35l0.29,-0.43l0.12,-0.05l0,0.19l-0.11,0.2l-0.07,0.24l-0.02,0.27l-0.19,0.01l-0.21,-0.04l-0.05,0.09l-0.08,0.2l0.05,0.28l0.14,0.11l0.33,-0.01l0.28,0.02l0.25,0.1l0.04,0.09l-0.22,-0.05l-0.46,0.03l-0.22,-0.04l-0.43,0.02l-0.32,-0.16l-0.16,-0.16l-0.24,-0.04l-0.23,0.06l-0.13,0.22l-0.16,0.05l-0.37,-0.55l-0.23,-0.04l-0.11,0.13l0.11,0.35l-0.06,0.21l-0.13,0.16l-0.16,-0.01l-0.1,0.07l0.08,0.15l0.25,0.37l0.21,0.16l0.18,0.23l0.09,0.19l0.22,-0.01l0.05,0.16l-0.13,0.23l0,0.36l-0.09,0.02l-0.13,-0.08l-0.25,-0.22l-0.13,-0.04l-0.07,0.06l-0.02,0.15l0.06,0.4l-0.13,0.57l0.03,0.17l-0.02,0.14l-0.11,-0.1l-0.13,-0.22l-0.27,-0.34l-0.33,-0.75l-0.35,-0.51l-0.19,-0.43l-0.29,-0.81l-0.15,-0.01l-0.19,0.35l-0.21,0.46l-0.14,0.23l-0.34,0.23l-0.21,0.23l-0.25,0.08l-0.28,0.26l-0.2,0.22l-0.28,0.52l-0.05,0.34l0.01,0.35l0.12,0.5l0.13,0.73l0.19,0.08l0.15,0.12l-0.04,0.22l-0.23,0.14l-0.72,0.69l-0.48,0.25l-0.14,0.17l-0.18,0.37l-0.26,0.46l-0.12,0.29l-0.27,0.56l-0.44,0.63l-0.44,0.47l-0.51,0.37l-0.33,0.18l-1.25,0.52l-0.67,0.2l-1.2,0.15l-0.51,0.24l-0.64,-0.08l-0.71,-0.05l-0.99,0.79l-0.82,0.19l-0.73,0.14l-0.31,0.13l-0.72,0.46l-0.42,0.21l-0.78,0.23l-0.32,-0.02l-0.43,-0.22l-0.4,0.05l-0.45,-0.03l-0.36,0.02l-0.28,0.18l-1.67,0.95l-0.33,0.26l-0.34,0.38l-0.49,0.35l-0.39,0.4l-0.83,0.42l-0.85,0.32l-0.42,0.26l-0.3,0.36l-0.52,0.96l-0.11,0.24l-0.21,0.25l-0.28,0.09l-0.18,0.08l0.06,-0.48l-0.2,-0.43l0.14,-0.82l-0.05,-0.24l-0.28,0.16l-0.18,0.17l-0.46,1.18l-0.31,0.92l0.24,0.53l0.08,0.31l0,0.33l-0.08,0.48l0.01,0.31l-0.03,0.41l-0.57,0.96l-0.18,0.42l-0.19,0.8l-0.02,0.37l0.01,0.56l0.24,0.49l0.18,0.3l0.29,0.87l0.34,0.58l0.56,1.17l0.62,0.95l0.04,0.36l-0.07,0.49l0.03,0.51l-0.11,0.15l-0.24,0.18l-0.28,-0.23l-0.14,-0.2l-0.18,-0.72l-0.07,-0.04l-0.12,0.31l-0.13,0.14l-0.12,-0.09l-0.09,-0.12l-0.02,-0.12l0.04,-0.15l0.04,-0.54l-0.26,-0.31l-0.23,-0.33l-0.25,-0.08l-0.15,0.15l0,0.2l0.33,0.57l0.21,0.62l0.33,0.39l0.19,0.1l0.22,0.24l-0.05,0.52l-0.16,0.2l-0.13,0.1l-0.43,-0.12l-0.1,-0.38l-0.33,-0.74l-0.11,-0.29l-0.09,-0.08l-0.04,0.14l0.01,0.26l-0.06,0.11l-0.07,-0.01l-0.13,-0.13l-0.12,-0.07l-0.07,0.02l0.13,0.18l0.29,0.55l1.06,1.34l0.89,1.57l0.2,0.62l0.1,1.36l0.09,0.33l0.53,0.68l0.52,0.79l0.15,0.39l0,0.34l0.11,0.32l0.64,0.87l0.29,0.93l0.04,0.34l-0.08,0.58l0.08,1.03l0.07,0.56l0.23,1.11l0.28,0.8l0.33,0.5l0.45,1.11l0.68,1.28l0.11,0.64l-0.04,1.69l-0.05,0.55l-0.15,0.1l-0.1,0.23l0.15,1.11l0.03,0.64l-0.22,0.6l-0.25,0.53l-0.44,0.36l-0.5,0.01l-0.23,-0.21l-0.29,-0.22l-0.05,0.97l-0.01,0.83l0.09,0.32l0.01,0.37l0.33,0.29l0.19,-0.11l0.23,-0.02l0.81,0.41l0.45,0.34l0.73,0.91l0.65,0.24l0.84,0.42l0.98,0.13l0.78,0.02l1.23,0.22l0.26,-0.08l0.53,-0.07l0.4,-0.14l0.36,-0.09l1.08,-0.85l1.05,-0.87l0.52,-0.07l0.47,-0.01l0.57,-0.3l0.52,-0.9l0.26,-0.2l0.35,-0.23l1,-0.13l0.59,0.09l0.31,-0.15l0.8,-0.16l1.66,-0.15l0.91,0.12l0.61,-0.02l0.32,0.06l0.25,0.4l1.76,-0.34l0.5,-0.02l0.31,0.06l0.39,0.3l0.44,-0.28l0.4,0.04l0.4,-0.27l0.61,-0.81l0.28,-0.5l0.45,-1.06l0.33,-0.38l0.36,-0.19l0.43,-0.06l0.66,-0.19l1.42,-0.89l0.55,-0.19l0.29,-0.17l0.98,-0.69l0.62,-0.13l1.8,0.18l0.86,-0.05l0.66,-0.11l1,-0.37l1.09,-0.28l1.34,-0.59l1.12,-0.61l0.68,-0.14l1.07,-0.11l1.57,-0.16l1.83,0.08l0.46,-0.13l0.23,-0.11l0.32,-0.12l0.4,0.08l0.3,0.09l0.92,0.48l1.39,1.02l0.31,0.04l0.91,-0.23l0.3,0.02l1.28,0.75l0.53,0.02l0.42,-0.02l0.32,0.08l0.34,0.2l0.4,0.47l0.85,0.45l0.04,0.37l-0.06,0.24l-0.19,0.01l-0.16,0.05l0.21,0.77l0.36,0.62l0.86,0.08l0.31,0.22l0.2,0.24l0.16,0.39l0.12,0.61l0.43,0.51l0.4,0.43l0.09,0.18l0.19,0.62l0.07,0.18l0.16,0.61l0.23,0.7l-0.06,0.07l-0.14,-0.01l-0.24,-0.18l-0.21,-0.2l-0.11,0.03l-0.13,0.14l-0.02,0.17l0.19,-0.04l0.11,0.02l0.26,0.21l0.25,0.25l0.19,0.15l0.47,0.62l0.18,-0.14l0.22,-0.12l0.36,0.34l0.14,0.07l0.08,-0.13l-0.13,-0.6l-0.13,-0.15l-0.03,-0.21l0.17,-0.15l0.08,-0.18l0.4,-0.45l0.87,-1.35l0.27,-0.15l0.31,-0.29l0.42,-0.23l0.43,-0.27l0.27,-0.1l0.27,-0.06l0.3,-0.25l0.33,-0.67l0.25,-0.79l0.26,-0.35l0.4,-0.37l0.31,-0.51l-0.03,-0.4l0,-0.41l0.22,0.32l0.14,0.32l0.22,1.08l-0.19,0.24l-0.2,0.12l0.04,0.38l0.13,0.49l0.05,0.39l-0.42,0.42l-0.37,0.52l-0.44,1.02l-0.03,0.31l-0.07,0.43l0.03,0.38l0.07,0.36l-0.11,0.57l-0.18,0.51l-0.23,0.01l-0.16,-0.02l-0.35,0.04l-0.32,-0.03l-0.37,1.11l0.23,0.05l0.18,-0.06h0.32l0.36,-0.2l0.53,-0.16l0.3,0.06l0.35,-0.02l0.51,-1.42l0.13,-0.92l0.26,-0.41l0.08,-0.29l0.13,-0.27l0.27,0.46l0.22,0.45l0.48,0.73l0.15,0.37l0.06,0.89l-0.31,1.03l-0.19,0.29l-0.23,0.26l-0.19,0.43l0.58,0.11l0.37,-0.01l0.58,-0.31l0.12,-0.04l0.29,-0.01l0.11,-0.16l0.29,-0.16l0.21,-0.18l0.28,-0.15l0.25,0.1l0.06,0.08l0.06,0.09l-0.09,0.2l-0.01,0.43l-0.17,-0.05l-0.15,-0.26l-0.18,0.07l-0.13,0.19l-0.28,-0.06l0.05,0.13l0.15,0.25l0.58,0.48l0.62,0.63l0.23,0.3l0.51,0.95l0.36,1.01l-0.03,0.3L868,573.6l-0.13,0.55l0.01,0.29l0.12,0.37l0.25,0.37l0.95,1.02l0.5,0.9l0.67,0.47l1.08,0.17l0.57,0.34l0.59,0.68l0.19,0.06l0.29,0.03l0.37,-0.41l0.56,0.04l0.74,0.41l0.44,-0.1l0.31,0.05l0.44,0.23l0.64,0.46l0.68,0.23l0.4,0.35l0.31,0.05l0.56,0.23l0.41,-0.19l0.35,-0.24l0.81,-0.85l0.64,-0.41l0.33,-0.16l0.27,-0.07l0.34,-0.26l-0.21,-0.19l-0.2,0.03l-0.34,-0.1l0.2,-0.12l0.21,-0.09l0.99,-0.63l0.26,0.19l0.18,0.21l0.2,0.29l-0.15,0.4l-0.13,0.19l-0.3,0.31l-0.37,0.01l-0.17,-0.02l0.36,0.34l0.31,0.23l0.65,-0.42l0.16,-0.33l0.12,-0.19l0.21,-0.04l0.31,0.06l0.12,0.24l0.07,0.29l-0.22,0.08l-0.11,0.22l-0.08,0.21l0.39,0.27l0.2,0.17l0.24,0l0.28,0.04l0.21,0.39l0.2,0.45l0.23,-0.12l0.14,-0.12l0.25,0.11l0.27,0.35l0.22,0.4l0.02,0.17l0.17,0.08l0.16,-0.12l0.08,-0.17l-0.01,-0.31l-0.04,-0.49l-0.11,-0.07l-0.25,0.27l-0.14,-0.19l-0.19,-0.21l0,-0.2l0.21,-0.1l0.18,0.04h0.22l1.18,-0.17l1.51,-1.59l0.66,-0.58l0.69,-0.43l0.71,-0.28l0.37,-0.09l1.91,-0.15l1,0.05l0.51,-0.11l0.24,-0.15l0.4,-0.4l0.28,-0.24l0.35,-0.07l0.08,-0.3l0,-0.32l0.07,-0.33l-0.1,-0.62l0.03,-0.82l0.08,-0.43l0.21,-0.6l0.09,-0.62l0.09,-0.87l0.08,-0.52l0.1,-0.47l0.27,-0.52l0.23,-0.34l0.54,-1.27l0.19,-0.13h0.16l0.07,-0.08l0.02,-0.07l-0.05,-0.05l-0.07,-0.15l0.05,-0.12l0.17,-0.12l0.05,0.04l0.08,-0.03l0.01,-0.06l-0.08,-0.35l0.11,-0.49l0.14,-0.85l0.16,-0.38l0.09,-0.3l0.36,-0.46l0.4,-0.45l-0.11,-0.05l-0.19,-0.03l0.12,-0.11l0.09,-0.03l0.12,0.07l0.1,-0.2l0.02,-0.31l0.1,-0.46l-0.09,-0.4l0.18,-0.12l0.21,-0.07l0.09,-0.42l0.06,-0.17l0.13,-0.16l0.22,-0.33l0.17,-0.34l0.41,-0.66l0.4,-0.27l0.59,-0.21l0.07,-0.12l-0.15,-0.07l0.01,-0.07h0.22l0.09,-0.23l0.23,-0.17l0.39,-0.39l0.13,-0.36l0.08,-0.29l0.04,-0.65l0.64,-0.85l0.44,-1.15l0.11,-0.74l0.11,-0.4l0.07,-0.58l-0.07,-0.61l0.02,-0.51l0.44,-1.29l0.1,-0.53l0.14,-0.34l0.21,-1.27l0,-0.66l0.32,-0.77l0.4,-0.63l0.03,-0.58l-0.13,-0.44L906.71,544.84zM840.91,495.87l0.52,-0.15l0.52,0.18l0.29,-0.05l-0.01,-0.12l-0.06,-0.1l-0.11,-0.1l-0.23,-0.07l-0.07,-0.25l-0.13,-0.23l-0.02,-0.26l-0.11,-0.24l-0.12,0l-0.12,0.07l-0.28,0.33l0.1,0.18l0.03,0.33l-0.16,0.11l-0.19,-0.05l-0.08,0.3l0.09,0.11L840.91,495.87zM793.2,537.66l0,-0.22l-0.1,-0.21l-0.32,-0.91l-0.1,0.03l-0.11,0.12l0.16,0.66l0.54,0.97l0.07,-0.13l-0.1,-0.25L793.2,537.66zM799.54,522.19l0.16,-0.23l0.03,-0.21l-0.06,-0.14l-0.22,0.23l-0.13,0.19l0.03,0.12L799.54,522.19zM825.17,506.2l0.1,0.02l0.11,-0.08l0.02,-0.13l-0.11,-0.13l-0.04,-0.12l-0.09,-0.01l-0.04,0.07l-0.06,0.14l0.12,0.12L825.17,506.2zM827.07,503.77l-0.01,-0.08l0.01,-0.22l-0.11,-0.05l-0.12,0.1l-0.07,0.29l0.12,0.14L827.07,503.77zM889.24,596.16l-0.07,0.13l-0.02,0.12l-0.06,0.06l0.12,0.08l0.03,0.19l0.06,0.03l0.18,0l-0.1,-0.47L889.24,596.16zM889.13,596.93l-0.08,-0.01l-0.14,0.2l-0.04,0.16l-0.06,0.03l-0.04,0.11l-0.06,0.09l-0.16,-0.07l0,0.07l0.14,0.27l0.22,-0.07l0.22,0.07l0.13,-0.4l-0.04,-0.19L889.13,596.93zM891.46,594.39l-0.2,-0.09l-0.14,0.18l0.02,0.09l0,0.2l0.05,0.02l0.16,-0.03l-0.01,-0.11l0.19,-0.11L891.46,594.39zM862.79,569.52l-0.26,0.12l-0.67,-0.08l0,-0.06l0.1,-0.23l-0.14,-0.13l-0.15,-0.05l-0.55,-0.04l-0.68,0.25l-1.27,0.29l-0.17,0.21l-0.11,0.28l0.14,0.16l0.46,0.34l0.44,0.05l0.32,-0.08l0.34,0.05l0.17,-0.2l0.48,0.13l0.19,0.19l0.4,-0.17l0.09,-0.31l0.14,-0.14l0.46,-0.1l0.5,0.14l0.15,-0.02l0.16,-0.17l-0.22,-0.33L862.79,569.52zM880.17,583.87l-0.08,-0.53l-0.25,-0.21l-0.15,0.01l-0.03,0.27l-0.17,0.15l-0.05,0.14l0.01,0.31l-0.07,0.29l0.14,0.29l-0.03,0.29l0.06,0.21l0.08,-0.02l0.3,-0.14l0.22,-0.21l0.08,-0.25l-0.1,-0.29L880.17,583.87zM822.57,497.62l0,-0.03l-0.06,0l0,0.03L822.57,497.62z"/>
		<path id="AW" title="Aruba" class="land" d="M279.53,427.68L279.54,427.76L279.41,427.72L279.23,427.54L279.06,427.41L279.1,427.26L279.15,427.21L279.32,427.35L279.49,427.6z"/>
		<path id="AX" title="Aland Islands" class="land" d="M531.8,249.86l0.09,0l0.04,-0.05l0.15,0.03l0.23,0.22l0.05,0.12l0.16,0.06l0.05,0.12l-0.18,0.38l-0.11,0.01l-0.08,-0.05l-0.15,0.04l-0.09,0.07l-0.03,0.16l0,0.33l-0.66,0.07l-0.15,-0.1l-0.21,-0.75l0.04,-0.2l0.14,-0.08l0.12,-0.02l0.02,0.41l0.18,-0.04l0.05,-0.27l0.01,-0.19l-0.05,-0.1l-0.12,-0.07l-0.07,-0.13l0.1,-0.2l0.18,-0.09l0.16,0.27L531.8,249.86zM530.88,250.79l0.01,0.13l-0.11,-0.03l-0.08,0.04l-0.06,0.16l-0.12,-0.06l-0.05,-0.22l0.09,-0.33l0.22,-0.01L530.88,250.79zM533.54,251.61l-0.02,0.13l-0.23,0.03l-0.1,-0.12l-0.21,0.01l-0.04,-0.06l0.09,-0.12l0.17,-0.07l0.22,0.03L533.54,251.61z"/>
		<path id="AZ" title="Azerbaijan" class="land" d="M612.02,333.86l0.26,0.22l0.45,0.59l0.64,0.95l0.16,0.27l0.1,0.31l0.09,0.38l0.15,0.33l0.65,0.84l0.28,0.31l0.46,0.4l0.16,0.09l0.21,0.02l0.39,0l0.36,0.16l0.18,0.11l0.18,0.16l0.17,0.18l0.17,0.49l-0.63,-0.16l-0.63,0.02l-0.36,0.1l-0.35,0.14l-0.33,0.2l-0.21,0.39l-0.17,0.9l-0.25,0.84l0.01,0.39l0.11,0.37l-0.01,0.18l-0.12,0.07l-0.15,0.16l-0.2,0.77l-0.1,0.15l-0.13,0.09l-0.03,-0.09l0.01,-0.2l-0.28,-0.18l-0.14,0.2l-0.1,0.42l-0.2,0.44l-0.01,0.08l0.05,1.36l-0.08,-0.01l-0.58,0.14l-0.12,-0.04l-0.49,-0.63l-0.1,-0.07l-0.21,-0.03l-0.12,-0.1l-0.1,-0.17l-0.06,-0.13l-0.51,-0.34l-0.08,-0.12l-0.01,-0.11l0.08,-0.1l0.09,-0.08l0.25,-0.08l0.29,-0.07l0.09,-0.05l0.05,-0.09l0,-0.15l-0.05,-0.14l-0.42,-0.26l-0.05,-0.11l-0.01,-0.14l0.02,-0.14l0.06,-0.11l0.34,-0.15l0.18,-0.16l-0.11,-0.18l-0.37,-0.41l-0.44,-0.45l-0.29,0l-0.33,0.13l-0.54,0.38l-0.3,0.16l-0.39,0.27l-0.42,0.3l-0.35,0.32l-0.21,0.26l-0.38,0.11L607,344l-0.64,0.66l-0.18,-0.01l-0.01,-0.33l0.01,-0.26l-0.04,-0.15l-0.21,-0.2l0,-0.09l0.06,-0.05l0.16,0.03l0.2,-0.01l0.1,-0.08l-0.22,-0.27l-0.19,-0.18l-0.17,-0.12l-0.04,-0.07l0,-0.05l0.04,-0.06l0.28,-0.15l0.03,-0.14l-0.02,-0.15l-0.45,-0.23l-0.34,0.08l-0.3,-0.25l-0.19,-0.2l-0.24,-0.21l-0.22,-0.12l-0.21,-0.27l-0.36,-0.27l-0.23,-0.08l0,-0.04l0.04,-0.05l0.1,-0.04l0.64,0.01l0.08,-0.05l0.04,-0.12l0.09,-0.17l0.1,-0.26l-0.01,-0.22l-0.64,-0.35l-0.47,-0.32l-0.32,-0.42l-0.22,-0.39l0.01,-0.13l0.06,-0.12l0.5,-0.36l0.03,-0.09l-0.01,-0.06l-0.18,-0.18l-0.22,-0.19l-0.07,-0.14l-0.14,-0.07l-0.27,-0.01l-0.47,-0.23l-0.1,-0.02l-0.02,-0.05l0.02,-0.05l0.34,-0.09l0,-0.08l-0.1,-0.1l-0.19,-0.08l-0.17,-0.19l-0.06,-0.17l0.61,-0.49l0.18,-0.1l0.4,0.09l0.82,0.33l-0.06,0.18l0.08,0.1l0.19,0.14l0.36,0.14l0.31,0.07l0.16,-0.06l0.24,-0.05l0.31,0.16l0.28,0.2l0.14,0.08l0.08,0.03l0.21,-0.07l0.26,-0.26l0.1,-0.32l0.03,-0.15l-0.15,-0.21l-0.31,-0.23l-0.35,-0.2l-0.22,-0.18l-0.14,-0.35l-0.14,-0.04l-0.04,-0.05l-0.02,-0.12l0.01,-0.17l0.05,-0.13l0.14,-0.06l0.14,-0.02l0.13,-0.12l0.16,-0.24l0.07,-0.13l0.3,0.08l0.04,0.22l0.05,0.05l0.13,-0.03l0.21,-0.09l0.17,0.07l0.21,0.26l0.3,0.27l0.16,0.18l0.06,0.13l0.15,0.12l0.22,0.14l0.18,0.23l0.16,0.52l0.16,0.12l0.57,0.2l0.2,0.04l0.56,0.07l0.2,-0.05l0.29,-0.45l0.26,-0.47l0.24,-0.1l0.44,-0.22l0.26,-0.21l0.11,-0.23l0.25,-0.43L612.02,333.86zM603.54,338.43l0.03,-0.12l-0.08,-0.05l-0.08,0l-0.07,0.06v0.15l0.1,0.03L603.54,338.43zM602.06,336.91l-0.06,0.04l-0.09,-0.04l-0.03,-0.09l0.01,-0.1l0.09,-0.02l0.08,0.03l0.02,0.09L602.06,336.91zM605.12,344.75l-0.54,-0.11l-0.97,-0.23l-0.27,-0.12l-0.25,-0.32l-0.15,-0.16l-0.22,-0.2l-0.18,-0.08l-0.14,-0.14l-0.08,-0.21l-0.12,-0.19l-0.2,-0.22l-0.46,-0.75l-0.06,-0.08l-0.1,-0.12l-0.04,-0.07l0.28,-0.06l0.46,-0.17l0.13,0.08l0.13,0.17l0.07,0.14l0.01,0.27l0.06,0.04l0.22,-0.09l0.1,0.11l0.17,0.13l0.3,0.13l0.43,-0.2l0.22,-0.05l0.18,0l0.1,0.06l0.03,0.21l-0.03,0.26l-0.05,0.14l0.09,0.1l0.35,0.25l0.15,0.14l-0.07,0.24l0.26,0.58l0.09,0.23L605.12,344.75z"/>
		<path id="BA" title="Bosnia and Herzegovina" class="land" d="M523.18,320.61L523.76,321.03L524,321.09L524.14,321.03L524.32,321.06L524.73,321.18L524.82,321.23L524.94,321.22L525.24,321.06L525.35,321.08L525.69,321.4L525.86,321.4L526.07,321.26L526.21,321.15L526.6,321.23L526.83,321.18L527.02,321.18L527.22,321.23L527.41,321.3L527.59,321.37L528.08,321.4L528.31,321.6L528.4,321.8L528.41,321.92L528.43,322.04L528.56,322.17L528.86,322.24L529.04,322.22L529.14,322.22L529.39,322.1L529.69,322.05L529.9,322.11L530,322.18L530.02,322.27L529.96,322.57L529.84,322.9L529.65,323.25L529.45,323.57L529.39,323.74L529.38,324.01L529.36,324.23L529.38,324.34L529.45,324.45L529.67,324.54L529.97,324.75L530.23,325.03L530.56,325.34L530.66,325.46L530.66,325.59L530.56,325.68L530.28,325.71L529.99,325.69L529.88,325.65L529.78,325.69L529.71,325.77L529.74,325.85L530.04,326.23L530.39,326.78L530.41,327.01L530.37,327.2L530.29,327.33L530.14,327.3L530.03,327.2L529.87,327.21L529.74,327.24L529.57,327.44L529.48,327.43L529.34,327.46L529.25,327.5L529.1,327.44L528.95,327.4L528.88,327.46L528.85,327.58L528.95,327.79L529.13,328.11L529.1,328.36L528.96,328.39L528.84,328.18L528.73,328.15L528.6,328.16L528.32,328.4L528.11,328.6L528.06,328.74L527.98,328.9L527.96,329.01L527.97,329.38L527.59,329.44L527.51,329.49L527.46,329.61L527.49,330.08L527.52,330.33L527.74,330.73L527.75,330.85L527.72,330.93L527.56,331.09L527.49,331.14L527.44,331.16L527.19,331.06L527.07,331.01L526.56,330.67L526.34,330.47L525.99,330.22L525.77,330.08L525.66,329.86L525.49,329.81L525.28,329.88L525.05,329.72L525.22,329.64L525.26,329.56L525.24,329.46L525.16,329.32L524.54,328.72L524.23,328.31L524.18,328.17L524.18,327.77L524.11,327.68L523.65,327.5L523.13,326.99L522.61,326.49L522.53,326.35L522.26,325.97L521.93,325.62L521.66,325.4L521.45,325.14L521.2,324.79L521.08,324.26L520.97,323.78L520.89,323.59L520.74,323.53L520.27,322.96L519.86,322.63L519.87,322.27L519.93,321.68L520.01,321L520.11,320.9L520.29,320.85L520.5,320.87L520.68,320.96L521.04,321.42L521.25,321.6L521.43,321.67L521.63,321.48L521.88,321.07L522.09,320.85L522.82,320.93z"/>
		<path id="BB" title="Barbados" class="land" d="M308.73,425.88L308.65,425.93L308.4,425.82L308.31,425.68L308.3,425.24L308.46,425.2L308.75,425.55L308.92,425.67z"/>
		<path id="BD" title="Bangladesh" class="land" d="M735.51,399.82l0.02,0.11l0,1l0.03,0.42l0.09,0.35l0.02,0.13l-0.09,0.11l-0.09,0.02l-0.08,-0.17l-0.19,-0.13l-0.28,-0.14l-0.12,-0.09l-0.14,0.04l-0.2,0.21l-0.08,0.19l0.04,0.27l0.06,0.27l0.14,0.15l0.01,0.17l0.05,0.22l0.07,0.2l0.03,0.22l-0.05,0l-0.17,-0.28l-0.15,-0.3l-0.39,-0.57l-0.13,-1.02l-0.01,-0.51l-0.27,-0.6l-0.18,-0.83l-0.07,-0.21l0.09,-0.27l0.02,-0.1l-0.05,0.02l-0.14,0.14l-0.18,-0.33l-0.12,-0.3l-0.46,-0.61l-0.13,-0.27l-0.01,-0.26l-0.2,0.27l-0.27,0.19l-0.27,0.28l-0.18,0.08l-0.58,0.05l-0.33,-0.38l-0.48,-0.92l-0.06,-0.21l0.06,-0.54l-0.11,-0.51l0,-0.27l-0.03,-0.18l-0.09,0.04l-0.03,0.13l0.02,0.19l-0.04,0.16l-0.41,-0.03l-0.39,-0.07l0.34,0.27l0.37,0.06l0.19,0.24l0.02,0.19l-0.01,0.21l-0.19,0.15l-0.17,0.09l0.03,0.2l0.21,0.25l-0.25,0.07l-0.07,0.16l-0.01,0.23l0.13,0.2l0.05,0.15l-0.03,0.14l0.12,0.15l0.18,0.31l0.06,0.22l-0.08,0.31l-0.1,0.12l-0.17,0.12l-0.39,0.39l-0.19,0.45l-0.16,0.21l-0.2,0.04l-0.08,-0.09l-0.17,-0.12l0,-0.22l0.05,-0.17l0.34,-0.42l-0.19,0.06l-0.21,0.12l-0.32,0.23l-0.1,-0.28l-0.07,-0.26l0,-0.32l0.26,-0.48l-0.29,0.24l-0.08,0.3l0.04,0.35l-0.04,0.25l-0.11,0.32L727.6,400l-0.25,0.12l-0.11,0.19l-0.17,0.14l0,-0.28l-0.05,-0.37l-0.18,-0.88l-0.04,0.19l0.09,0.55l-0.01,0.35l-0.14,0.28l-0.28,0.3l-0.21,0.04l-0.12,-0.05l-0.19,-0.19l-0.21,-0.27l-0.03,-0.43l-0.08,-0.24l0.01,-0.28l-0.02,-0.27l-0.22,-0.71l-0.14,-0.37l0.02,-0.12l-0.01,-0.05l-0.07,-0.47l-0.09,-0.29l-0.05,-0.31l0.22,-0.44l-0.09,-0.07l-0.25,-0.06l-0.23,-0.08l-0.06,-0.12l0.1,-0.44l-0.12,-0.17l-0.17,-0.17L724.4,395l-0.06,-0.09l-0.08,-0.22l0.16,-0.46l0.22,-0.54l0.04,-0.21l0.04,-0.36l0.02,-0.14l-0.03,-0.13l-0.23,-0.16l-0.4,-0.06l-0.29,-0.13l-0.17,-0.2l-0.14,-0.08l-0.17,0.06l-0.22,-0.08l-0.19,-0.2l-0.16,-0.24l0.02,-0.11l0.04,-0.15l0.29,-0.62l0.11,-0.02l0.25,0.12h0.09l0.17,-0.25l0.23,-0.7l0.33,0l0.29,0.02l0.2,0.04l0.2,-0.02l0.21,-0.06l0.11,-0.09l0.06,-0.11l-0.02,-0.1l-0.25,-0.13l-0.1,-0.1l-0.07,-0.28l-0.07,-0.11l-0.49,-0.01l-0.26,-0.13l-0.14,-0.12l-0.25,-0.38l-0.31,-0.28l-0.3,-0.07l-0.11,-0.09l-0.06,-0.15l0.04,-0.21l0.09,-0.19l0.06,-0.21l0.24,-0.28l0.28,-0.25l0.12,-0.17l0.17,-0.18l0.02,-0.1l-0.03,-0.11l-0.14,-0.11l-0.1,-0.03l-0.02,-0.07l0.07,-0.19l0.13,-0.02l0.28,0.17l0.29,0.27l0.17,0.24l0.01,0.19l0.11,0.03l0.11,0.01l0.19,0.08l0.19,-0.03l0.12,0.05l0.08,-0.02l0.03,-0.11l-0.09,-0.16l-0.07,-0.12l0.08,-0.12l0.09,-0.02l0.1,0.03l0.13,0.1l0.1,0.21l0.02,0.33l0.22,0.3l0.29,0.21l0.23,0.1l0.27,0.07l0.23,-0.07l0.12,-0.21l-0.05,-0.19l0.04,-0.17l0.09,-0.09l0.15,0.01l0.11,0.13l0.32,0.71l-0.07,0.32l0.07,0.87l-0.08,0.57l0.01,0.12l0.04,0.09l0.05,0.04l0.09,0l0.39,0.11l0.33,0.12l0.37,0.11l0.53,0.08l0.33,-0.03l0.16,0l0.33,0.03l0.86,-0.04l0.71,-0.01l0.29,0.08l0.23,0.03l0.8,-0.06l0.8,-0.03l0.43,0.18l0.47,0.29l0.27,0.22l0.05,0.13l-0.03,0.11l-0.09,0.06l-0.16,0l-0.38,-0.14l-0.06,0.04l0.01,0.29l-0.01,0.05l-0.08,0.26l-0.23,0.59l-0.04,0.26l-0.05,0.07l-0.06,0.04l-0.18,0.01l-0.14,0.04l-0.06,0.1l-0.09,0.2l-0.06,0.2l-0.09,0.06l-0.21,-0.11l-0.13,0.02l-0.16,0.05l-0.16,0.11l-0.11,0.14l-0.13,0.05l-0.38,-0.03l-0.07,0.02l-0.05,0.1l-0.04,0.13l-0.29,0.3l-0.11,0.48l-0.09,0.31l0.01,0.24l0.25,0.63l0.17,0.82l0.07,0.08l0.06,0.03l0.03,-0.02l-0.01,-0.17l0.01,-0.21l0.08,-0.05l0.1,0.04l0.1,0.18l0.11,0.33l0.12,0.13l0.19,0.04l0.21,-0.08l0.16,-0.15l0.06,-0.16l-0.04,-0.31l-0.01,-0.24l0.1,-0.22l0.36,-0.33l0.05,-0.1l-0.02,-0.28l0,-0.27l0.14,-0.02l0.18,0.04l0.23,-0.13l0.07,0l0.1,0.14l0.17,-0.02l0.12,0.58l0.13,0.51l0,0.25l0.02,0.52l0.06,0.43l0.09,0.1l0.1,0.23l0.1,0.26l0.08,0.15l0.05,0.48l0.06,0.35l0.08,1.09L735.51,399.82zM730.08,396.85l0.05,0.13l-0.16,-0.08l-0.12,-0.09l-0.07,-0.12l0.12,-0.06L730.08,396.85zM730.47,399.49l-0.49,0.11l-0.25,-0.03l0.46,-0.79l-0.02,-0.35l-0.07,-0.29l-0.24,-0.23l-0.01,-0.17l-0.11,-0.23l-0.05,-0.27l0.26,-0.09l0.21,0.15l0.03,0.08l0.05,0.22l0.11,0.23l0.37,0.47l-0.01,0.28l-0.1,0.7L730.47,399.49zM732.65,398.6l-0.13,0.09l-0.12,-0.08l-0.16,-0.29l0.08,-0.37l0.05,-0.05l0.08,0.12l0.11,0.26l0.07,0.2L732.65,398.6zM731.51,399.23l-0.3,0.21l0.1,-1.25l0.22,0.47l0.06,0.25L731.51,399.23zM733.54,400.26l-0.1,0.25l-0.05,-0.18l0.04,-0.23l0.04,-0.13l0.03,0l0.06,0.13L733.54,400.26zM733.75,401.23l-0.17,0.01l-0.08,-0.09l0.04,-0.12l-0.05,-0.4l0.14,-0.04l0.07,0l0.04,0.12l0.04,0.22L733.75,401.23z"/>
		<path id="BE" title="Belgium" class="land" d="M489.22,294.64L489.23,294.74L489.31,294.78L489.57,294.76L489.71,294.59L489.82,294.48L489.9,294.55L489.94,294.76L490.01,295.03L490.33,295.33L490.6,295.42L490.94,295.36L491.07,295.31L491.16,295.35L491.25,295.51L491.44,295.69L491.84,295.82L491.97,295.9L492.05,296.02L492.03,296.19L491.84,296.63L491.81,296.76L491.84,296.8L491.8,296.88L491.55,297.17L491.53,297.27L491.61,297.44L491.68,297.58L491.68,297.55L492.06,297.43L492.24,297.68L492.52,297.69L492.56,297.77L492.87,298L492.97,298.19L493.2,298.36L493.01,298.59L493.04,298.69L493.11,298.79L493.37,298.85L493.5,299L493.5,299.23L493.56,299.6L493.03,299.96L492.88,300.37L492.87,300.45L492.85,300.44L492.79,300.3L492.69,300.31L492.47,300.25L492.17,300.62L492.03,300.92L491.94,301.15L491.82,301.33L491.8,301.52L491.81,301.6L491.77,301.7L491.77,301.81L491.94,302.03L491.99,302.14L492.2,302.52L492.14,302.66L492.08,302.81L492.02,302.91L491.95,302.98L491.73,302.98L491.44,303.02L491.25,303.1L491.16,303.1L490.95,302.91L490.72,302.63L490.58,302.49L490.51,302.38L490.34,302.33L490.08,302.19L489.9,302.04L489.75,301.94L489.54,301.89L489.36,301.9L489.31,301.64L489.29,301.35L489.14,301.15L489.34,300.39L489.22,300.31L489.09,300.37L488.91,300.56L488.82,300.77L488.77,300.97L488.46,301.15L487.96,301.22L487.42,301.15L487.34,301.1L487.31,301.05L487.31,300.98L487.35,300.87L487.44,300.75L487.46,300.57L487.37,300.41L487.31,300.35L487.33,300.2L487.4,300.01L487.42,299.9L487.05,299.57L486.78,299.51L486.53,299.5L486.33,299.46L486.22,299.48L486.14,299.57L486.05,299.64L485.99,299.56L485.88,298.98L485.79,298.89L485.46,298.79L485.01,298.76L484.89,298.65L484.82,298.39L484.78,298.07L484.63,297.77L484.55,297.69L484.42,297.56L484.18,297.61L483.9,297.79L483.73,297.84L483.67,297.86L483.44,297.68L483.19,297.42L482.99,297.13L482.94,296.97L483,296.78L482.93,296.63L482.82,296.36L482.79,296.15L484.01,295.39L484.75,295.01L485.1,294.89L485.19,295.28L485.25,295.4L485.33,295.48L485.44,295.5L485.57,295.4L485.75,295.3L486.03,295.35L486.24,295.44L486.31,295.54L486.45,295.63L486.65,295.65L487.04,295.48L487.41,295.21L487.52,295.02L487.56,294.85L487.78,294.96L487.97,294.99L488.06,294.94L488.01,294.67L488.16,294.52L488.34,294.46L488.42,294.57L488.58,294.69L488.7,294.69L489.05,294.38L489.13,294.44L489.2,294.55z"/>
		<path id="BF" title="Burkina Faso" class="land" d="M476.31,420.62L476.27,420.75L476.27,420.99L476.22,421.36L476.16,421.81L476.4,422.1L476.69,422.42L476.77,422.54L476.7,422.84L476.75,423.02L476.9,423.32L477.17,423.7L477.43,424.1L477.62,424.15L477.8,424.18L477.91,424.25L478.06,424.32L478.22,424.36L478.36,424.45L478.44,424.53L478.56,424.77L478.86,424.93L479.07,425.09L478.99,425.17L478.72,425.14L478.47,425.07L478.44,425.18L478.43,425.62L478.47,425.99L478.53,426.04L478.78,426.11L479.37,426.59L479.91,427.04L480.09,427.15L480.39,427.2L480.72,427.22L480.87,427.18L481.19,426.95L481.36,426.92L481.52,426.93L481.61,426.97L481.76,427.15L481.91,427.43L481.95,427.64L481.93,427.75L481.88,427.79L481.62,427.84L481.5,427.89L481.48,427.95L481.52,428.08L481.57,428.17L481.86,428.58L482.28,429.12L482.4,429.26L482.33,429.42L482.12,429.85L481.96,430.02L481.26,430.62L480.91,430.55L480.19,430.67L480.08,430.54L479.91,430.52L479.7,430.54L479.63,430.59L479.6,430.65L479.53,430.74L479.4,430.97L479.29,431.03L479.16,431.07L479.01,431.07L478.92,431.1L478.91,431.22L478.89,431.32L478.78,431.37L478.73,431.48L478.74,431.6L478.68,431.65L478.54,431.62L478.46,431.59L478.39,431.73L478.29,431.83L478.23,431.83L477.5,431.86L477.24,431.94L477.08,431.94L477.08,431.88L477.06,431.84L476.15,431.62L475.51,431.48L474.86,431.34L474.82,431.48L474.73,431.56L474.59,431.57L474.49,431.55L474.43,431.65L474.32,431.79L474.17,431.86L474.02,431.94L473.94,432.02L473.88,432.02L473.73,431.84L473.53,431.83L473.17,431.86L473,431.81L472.77,431.78L472.24,431.82L471.39,431.75L471.25,431.79L471.21,431.82L470.37,431.83L469.44,431.84L468.66,431.85L467.98,431.85L467.98,431.82L467.76,431.82L467.73,431.88L467.54,432.59L467.52,432.97L467.62,433.21L467.74,433.36L467.87,433.42L467.88,433.51L467.78,433.62L467.78,433.73L467.91,433.85L467.94,433.97L467.87,434.1L467.89,434.41L467.98,434.9L467.98,435.22L467.9,435.37L467.94,435.62L468.1,435.97L468.13,436.12L468.07,436.18L467.94,436.28L467.79,436.27L467.63,436.06L467.56,435.97L467.43,435.75L467.31,435.53L467.16,435.44L467.01,435.35L466.83,435.08L466.65,434.94L466.47,434.98L466.2,434.93L465.65,434.86L465.06,434.88L464.82,434.95L464.58,435.05L463.97,435.27L463.72,435.38L463.54,435.65L463.33,435.65L463.13,435.56L463,435.43L462.72,435.46L462.45,435.34L462.19,435.1L462,435.02L461.75,434.85L461.68,434.52L461.53,434.29L461.39,433.96L461.18,433.82L460.93,433.74L460.59,433.76L460.37,433.63L460.2,433.44L460.24,433.28L460.32,433.05L460.33,432.82L460.38,432.46L460.35,432.01L460.29,431.69L460.48,431.56L460.69,431.44L460.83,431.23L460.96,430.75L461.02,430.33L460.98,430.17L460.91,430.05L460.85,429.87L460.82,429.65L460.86,429.46L461.02,429.28L461.23,429.13L461.37,429.06L461.75,428.99L462.23,428.88L462.51,428.75L462.71,428.63L462.83,428.53L462.94,428.32L463.13,428.16L463.27,428L463.29,427.56L463.29,427.31L463.18,427.17L463.12,427.05L463.84,426.7L463.84,426.46L463.74,426.18L463.6,425.96L463.55,425.77L463.75,425.55L463.92,425.38L464.05,425.23L464.33,425.02L464.62,424.96L464.88,425.04L465.66,425.56L465.8,425.59L465.96,425.55L466.17,425.41L466.43,425.31L466.53,424.96L466.52,424.46L466.58,424.22L466.72,424.18L467.17,424.28L467.29,424.29L467.42,424.25L467.51,424.16L467.51,424L467.49,423.86L467.63,423.38L467.9,423.03L468.44,422.59L468.61,422.5L468.8,422.45L469.77,422.76L469.93,422.68L470.16,421.93L470.42,421.86L470.74,421.84L470.94,421.78L471.05,421.73L471.51,421.44L472.32,421.05L472.75,420.88L472.84,420.82L473.15,420.54L473.57,420.22L473.83,420.16L474.19,420.14L474.42,420.19L474.49,420.28L474.56,420.33L475.04,420.19L475.72,420.41z"/>
		<path id="BG" title="Bulgaria" class="land" d="M555.92,326.63L555.86,327.56L555.59,327.99L555.18,327.85L554.66,327.97L554.38,328.46L554.22,328.6L554.08,328.77L553.99,329.41L553.97,330.44L553.77,330.57L553.59,330.6L552.83,331.51L553.27,331.76L553.46,331.96L553.78,332.49L554.23,333.1L554.32,333.39L553.94,333.33L553.81,333.35L553.72,333.44L553.55,333.42L553.33,333.42L553.1,333.53L552.98,333.58L552.81,333.48L552.49,333.18L552.3,332.98L552.16,332.93L552.02,332.99L551.51,333.06L551.39,333.18L551.15,333.31L550.91,333.37L550.57,333.42L550.4,333.41L550.29,333.47L550.21,333.67L550.15,333.85L550.1,333.93L549.68,334.02L549.59,334.13L549.56,334.24L549.57,334.34L549.23,334.24L548.97,334.31L548.91,334.39L548.85,334.5L548.88,334.63L548.98,334.75L549.07,335.07L549.1,335.39L549.05,335.58L548.85,335.71L548.45,335.85L548.06,335.78L547.89,335.84L547.61,335.86L547.34,335.9L546.93,336.03L546.57,336.11L546.24,335.84L545.84,335.65L545.43,335.55L545.29,335.63L545.23,335.69L544.88,335.45L544.73,335.36L544.65,335.27L544.51,334.96L544.42,334.94L544.14,335.06L543.87,335.06L543.7,335.04L543.21,335.05L543.15,335.27L543.09,335.3L542.98,335.33L542.72,335.32L542.39,335.48L542.03,335.57L541.75,335.58L541.47,335.53L541.29,335.56L540.92,335.58L540.69,335.81L540.32,335.8L540.01,335.76L540.05,335.69L540.11,334.76L540.26,334.34L540.26,334.25L540.23,334.19L540.09,334.12L539.99,333.9L539.79,333.3L539.68,333.18L539.36,333.05L539.08,332.88L538.84,332.66L538.41,332.09L538.63,332.04L538.69,331.92L538.91,331.61L538.94,331.46L538.91,331.37L538.77,331.22L538.67,330.9L538.74,330.59L538.75,330.44L538.67,330.28L538.75,330.09L538.91,329.98L539.01,329.95L539.42,329.93L539.69,329.54L539.85,329.42L540.01,329.19L540.09,329.11L540.16,328.94L540.18,328.76L539.85,328.52L539.74,328.33L539.6,328.13L539.4,327.98L539,327.74L538.84,327.49L538.77,327.17L538.67,326.93L538.55,326.77L538.53,326.64L538.48,326.48L538.47,326.16L538.56,325.75L538.62,325.6L538.76,325.56L539.12,325.34L539.14,325.05L539.2,324.87L539.32,324.77L539.42,324.7L539.62,324.87L540.1,325.13L540.33,325.33L540.32,325.45L540.21,325.56L540,325.68L539.88,325.83L539.85,326.02L539.88,326.16L540.02,326.27L540.88,326.12L541.75,326.2L542.92,326.46L543.69,326.55L544.26,326.43L545.32,326.64L546.31,326.85L547.26,326.91L547.79,326.75L548.16,326.53L548.48,326.13L549.27,325.6L550.04,325.3L551.05,325.06L551.72,324.98L551.81,325.06L552.67,325.55L553.05,325.55L553.36,325.64L553.47,325.77L553.55,325.8L553.96,325.68L554.14,325.95L554.42,326.32L554.9,326.51L555.33,326.62L555.47,326.64z"/>
		<path id="BH" title="Bahrain" class="land" d="M617.73,387.9L617.64,388.13L617.55,388.05L617.33,387.64L617.4,387.35L617.29,386.94L617.34,386.82L617.61,386.77L617.67,386.78L617.59,386.92L617.74,387.15L617.76,387.52z"/>
		<path id="BI" title="Burundi" class="land" d="M561.45,469.36L561.39,469.44L561.13,469.96L561.08,470.04L561.11,470.08L561.22,470.18L561.16,470.35L561.13,470.39L561.08,470.55L561.11,470.69L561.17,470.74L561.34,470.81L561.59,470.86L561.89,470.97L562.08,471L562.13,471.08L562.12,471.23L562.17,471.36L562.17,471.6L562.11,471.8L561.81,471.9L561.65,472.01L561.61,472.06L561.65,472.12L561.67,472.21L561.38,472.41L561.09,472.68L561.02,472.86L560.96,473.08L560.87,473.22L560.65,473.41L560.42,473.81L560.31,474.07L559.75,474.69L559.25,475L559.1,475.1L558.22,475.09L558.15,474.67L558.02,474.1L557.71,473.58L557.68,473.37L557.7,472.95L557.7,472.37L557.68,472.05L557.68,471.82L557.72,471.42L557.72,471.19L557.52,470.91L557.27,470.62L557.13,470.48L557.13,470.36L557.13,470.26L557.17,470.1L557.27,469.93L557.37,469.91L557.64,469.98L557.92,470.12L558.07,470.46L558.18,470.5L558.39,470.5L558.92,470.46L559.05,470.46L559.29,470.39L559.52,470.25L559.59,470.1L559.65,469.78L559.7,469.19L559.82,469.19L560.15,469.4L560.22,469.41L560.29,469.4L560.41,469.3L560.55,469.22L560.65,469.22L561.04,469.12L561.25,469.3L561.38,469.35z"/>
		<path id="BJ" title="Benin" class="land" d="M485.79,429.83L485.67,430.02L485.5,430.39L485.49,430.69L485.91,431.31L485.96,431.37L486.07,431.47L486.13,431.59L486.18,431.89L486.21,432.24L486.24,432.47L486.45,432.8L486.46,432.93L486.32,433.41L486.29,433.47L486.25,433.48L486.03,433.44L485.93,433.49L485.81,433.66L485.74,433.82L485.74,433.89L485.93,434.2L485.81,434.64L485.68,434.91L485.46,435.07L485.25,435.11L485.11,435.18L485.03,435.28L485.04,435.59L484.75,435.88L484.58,436.08L484.5,436.2L484.53,436.57L484.43,436.94L484.25,437.24L483.83,437.3L483.49,437.34L483.37,438.09L483.37,438.56L483.34,439.05L483.29,439.25L483.31,439.53L483.28,440.15L483.24,440.65L483.3,440.78L483.33,441.07L483.33,441.38L483.42,441.58L483.52,441.77L483.51,441.86L483.46,441.92L483.42,442L483.42,442.7L483.44,442.92L483.41,443.05L483.34,443.16L483.37,443.52L483.43,443.75L483.49,443.92L483.43,444.06L483.38,444.24L483.3,444.71L483.3,444.88L482.12,444.99L480.8,445.18L480.25,445.31L480.22,445.21L480.69,445.09L480.59,444.72L480.3,444.28L480.19,444.2L480.13,443.98L480.2,443.84L480.16,443.75L480.14,443.45L480,443.13L480.26,443.11L480.26,442.07L480.26,441.07L480.26,440.21L480.26,439.53L480.21,438.72L480.2,438.12L480.19,437.33L480.1,437.09L479.7,436.67L479.59,436.45L479.57,436.17L479.48,435.87L479.47,435.36L479.47,434.75L479.43,434.66L479,434.37L478.39,433.96L477.92,433.65L477.89,433.63L477.84,433.55L477.91,432.64L478.01,432.52L478.15,432.14L478.23,431.83L478.29,431.83L478.39,431.73L478.46,431.59L478.54,431.62L478.68,431.65L478.74,431.6L478.73,431.48L478.78,431.37L478.89,431.32L478.91,431.22L478.92,431.1L479.01,431.07L479.16,431.07L479.29,431.03L479.4,430.97L479.53,430.74L479.6,430.65L479.63,430.59L479.7,430.54L479.91,430.52L480.08,430.54L480.19,430.67L480.91,430.55L481.26,430.62L481.96,430.02L482.12,429.85L482.33,429.42L482.4,429.26L482.47,428.97L482.33,428.43L482.34,428.33L482.63,428.22L482.99,428.13L483.13,428.12L483.22,428.08L483.36,427.96L483.57,427.87L483.7,427.9L483.78,427.92L484.54,428.63L484.87,428.99L484.96,429.18L485.13,429.31L485.38,429.39L485.61,429.57z"/>
		<path id="BL" title="Saint Barthelemy" class="land" d="M299.36,412L299.32,412L299.29,411.98L299.26,411.93L299.24,411.89L299.24,411.86L299.27,411.87L299.45,411.9L299.43,411.93L299.4,411.97z"/>
		<path id="BN" title="Brunei Darussalam" class="land" d="M798.52,448.99l-0.23,0.12l-0.23,0.15l-0.23,0.13l-0.11,0.1l0.04,0.14l0.05,0.32l0.03,0.25l0.08,0.1l0.06,0.1l-0.03,0.11l-0.13,0.21l0.08,0.04l-0.1,0.27l-0.14,0.2l-0.2,0.16l-0.13,0.04l-0.1,-0.07l-0.17,-0.18l-0.18,-0.25l-0.08,-0.15l-0.26,-0.02l-0.09,-0.12l-0.01,-0.14l-0.07,-0.17l-0.1,-0.18l-0.15,-0.14l-0.21,-0.11l-0.09,-0.08l0.32,0l0.34,-0.05l0.35,-0.15l0.34,-0.18l0.28,-0.21l0.27,-0.23l0.28,-0.18l0.43,-0.21l0.15,0.02l0,0.15L798.52,448.99zM798.52,448.99h0.32l0.08,0.09l0.17,0.33l0.11,0.33l0.04,0.5l0.13,0.21l-0.02,0.04l-0.08,0.04l-0.12,0.02l-0.21,-0.05l-0.18,-0.07l-0.16,-0.54l-0.07,-0.3l0.01,-0.36L798.52,448.99z"/>
		<path id="BO" title="Bolivia" class="land" d="M312.48,520.1L312.53,519.6L312.47,519.18L312.42,519.07L311.59,518.56L310.84,518.1L309.86,517.49L308.6,517.51L307.29,517.53L306.04,517.8L304.82,518.06L304.23,518.19L303.07,518.44L302.38,518.56L302.2,519.04L301.93,519.77L301.66,520.2L301.36,520.65L300.92,521.28L300.92,522.05L300.92,522.78L300.62,523.82L300.36,524.7L300.11,525.55L299.93,526.14L299.87,526.29L299.83,526.24L299.61,526.07L299.41,525.73L299.36,525.58L299.33,525.58L298.14,525.59L297,525.6L296.88,525.67L296.71,525.67L296.59,525.6L296.47,525.61L296.3,525.67L296.15,525.8L295.71,526.69L295.5,527.07L295.34,527.4L295.22,527.99L295.17,528.08L295.03,527.88L294.83,527.35L294.74,527.05L294.61,526.71L294.38,526.27L294.12,526.14L293.96,526.1L293.72,526.02L293.3,525.92L293.12,525.9L291.92,525.88L291.82,525.87L291.35,525.92L291.11,525.89L290.86,525.64L290.31,525.22L290.19,525.09L289.98,525L289.85,524.99L289.78,525.08L289.68,525.43L289.57,525.75L289.45,525.93L289.05,526.06L288.68,526.2L288.47,526.24L288.36,526.4L288.32,526.62L288.23,526.82L287.69,527.12L287.57,527.25L287.51,527.55L287.21,527.92L287.12,528.07L286.65,528.17L286.04,528.28L285.68,528.27L285.44,528.24L285.36,528.17L285.2,528.07L285.17,527.95L285.17,527.79L285.21,527.49L285.19,527.07L285,526.59L285.01,526.44L284.99,526.2L284.89,525.76L284.64,525.53L284.57,525.17L284.54,524.84L284.34,524.44L284.3,523.92L284.31,523.48L283.98,522.97L283.64,522.43L283.36,522.36L283.29,522.29L283.26,522.14L283.26,521.9L283.28,521.75L283.49,521.51L283.5,521.48L283.46,521.43L282.91,521.07L282.77,520.97L282.72,520.85L282.73,520.73L282.86,520.62L282.93,520.53L282.8,520.28L282.81,520.05L282.73,519.95L282.74,519.88L282.82,519.81L283.17,519.74L283.28,519.51L283.29,519.32L283.24,519.18L282.9,518.84L282.9,518.78L283.24,518.3L283.49,517.99L283.56,517.93L283.54,517.86L283.48,517.78L283.32,517.66L283.12,517.52L282.95,517.36L282.73,517.13L282.45,516.92L282.25,516.72L282.14,516.55L282.14,516.38L282.11,516.1L281.98,515.64L281.94,515.32L281.88,514.98L281.82,514.75L281.79,514.54L281.7,514.3L281.64,514.13L281.72,514.01L281.8,513.91L281.79,513.85L281.26,513.6L281.17,513.54L281.05,513.04L280.66,512.59L280.62,512.26L280.62,512.26L280.62,512.13L280.59,511.92L280.47,511.75L280.3,511.64L280.24,511.51L280.3,511.37L280.64,511.09L280.82,511.04L280.87,510.9L280.98,510.79L281.3,510.38L281.49,510.11L281.68,509.95L281.9,509.83L281.99,509.74L281.94,509.45L281.96,509.26L282.03,509.13L282.25,509L282.45,508.9L282.49,508.85L282.48,508.78L282.29,508.63L281.92,508.5L281.68,508.52L281.52,508.4L281.44,508.31L280.95,507.11L280.87,506.83L280.88,506.72L281.2,506.13L281.34,505.94L281.57,505.66L281.53,505.55L281.12,505.09L281,504.87L281,504.65L281.04,504.39L281.28,504.25L281.34,504.03L281.39,503.82L281.49,503.75L281.6,503.63L281.72,503.45L281.9,503.3L282.02,503.18L282.04,502.86L282.13,502.77L282.39,502.67L282.41,502.59L282.36,502.37L282.23,502.14L282.12,502.03L281.99,501.47L281.84,501.19L281.9,501.08L282,500.93L282.1,500.65L282.13,500.32L282.11,499.12L282.11,498.89L282.24,498.72L282.42,498.53L282.58,498.46L282.73,498.33L282.72,498.11L282.81,497.97L282.94,497.81L282.56,497.14L282.23,496.56L281.92,496.02L281.56,495.39L281.33,494.97L281.04,494.46L280.78,494.01L280.43,493.39L280.75,493.38L281.41,493.4L282.05,493.51L282.48,493.56L282.66,493.65L282.7,493.81L282.82,493.88L282.95,493.85L283.11,493.84L283.46,493.68L283.74,493.58L283.99,493.46L284.11,493.34L284.41,492.92L284.66,492.69L284.88,492.6L285.32,492.57L285.46,492.64L285.64,492.63L285.79,492.39L286.03,492.13L286.49,491.8L286.73,491.71L286.88,491.59L287.13,491.57L287.35,491.45L288.42,490.62L288.86,490.41L289.13,490.37L289.35,490.32L289.73,490.2L290.68,490.08L291.29,490.04L291.49,490.15L291.71,490.12L291.9,489.93L292.05,489.87L292.17,489.88L292.33,490.1L292.41,490.33L292.36,490.51L292.37,490.77L292.44,491.11L292.4,491.41L292.17,491.8L292.05,491.96L292.02,492.13L292.04,492.35L292.15,492.72L292.34,493.22L292.37,493.6L292.24,493.84L292.17,494.05L292.18,494.23L292.23,494.35L292.32,494.42L292.36,494.56L292.37,494.78L292.49,494.98L292.7,495.18L292.79,495.37L292.75,495.55L292.76,495.66L292.82,495.7L292.88,495.67L292.95,495.62L293.02,495.64L293.17,495.89L293.19,495.94L293.27,496.15L293.3,496.3L293.52,496.39L293.76,496.46L293.89,496.54L294.15,496.79L294.37,496.96L294.64,497.09L294.73,497.3L294.9,497.63L295.37,497.75L295.91,497.81L296.26,497.89L296.68,497.71L296.96,497.74L297.25,497.85L297.37,497.93L297.58,498.1L297.92,498.31L298.19,498.39L298.38,498.27L298.56,498.23L298.7,498.28L298.77,498.52L298.85,498.67L299.01,498.79L299.35,499.1L299.55,499.22L299.77,499.21L300.22,499.41L300.71,499.61L300.96,499.64L301.2,499.61L301.37,499.69L301.43,499.92L301.85,500.39L302.05,500.58L302.29,500.74L302.89,500.73L303.07,500.78L303.34,500.74L304.14,500.66L304.29,500.63L304.74,500.84L305.28,501.13L305.64,501.37L305.89,501.49L306.02,501.7L306.13,501.92L306.17,502.15L306.11,502.39L306.01,502.48L305.98,502.63L306.02,502.85L306.2,503.05L306.26,503.3L306.36,503.74L306.47,503.88L306.54,505.23L306.18,505.25L305.67,505.26L305.82,505.39L306.24,505.9L306.63,506.36L306.69,507.11L306.73,507.59L306.79,508.26L306.82,508.65L307.78,508.69L308.9,508.73L310.24,508.78L311.41,508.83L311.53,508.82L311.73,508.77L311.87,508.7L311.95,508.7L311.97,508.86L311.94,509.06L311.94,509.3L311.6,509.76L311.58,509.91L311.63,510.52L311.75,511.02L311.81,511.47L311.95,511.6L312.35,511.84L312.95,512.28L313.19,512.34L313.39,512.28L313.52,512.46L313.54,512.74L313.87,513.55L314.08,514.07L314.18,514.24L314.34,514.34L314.31,514.4L314.18,514.43L314.12,514.53L313.94,515.1L313.7,515.86L313.53,516.4L313.68,516.4L313.69,516.55L313.72,516.78L313.54,516.81L313.48,516.89L313.28,517.33L313,517.9L312.72,518.5L312.55,518.85L312.84,519.11L313.31,519.55L313.24,519.67L313.04,519.73L312.86,519.77L312.73,519.94L312.66,520.0